{
 "allow_import": 1,
 "autoname": "naming_series:",
 "creation": "2017-03-10 17:51:55.340974",
 "doctype": "DocType",
 "document_type": "Document",
 "editable_grid": 1,
 "engine": "InnoDB",
 "field_order": [
  "naming_series",
  "patient_record",
  "column_break_3",
  "patient_name",
  "section_break_2",
  "consultation_purpose",
  "section_break_6",
  "before_delivery_bearing_down",
  "weight_gain",
  "column_break_9",
  "urinary_stress_incontinence",
  "which_term",
  "after_delivery",
  "vulval_area",
  "vulval_apertognathia",
  "vulval_air_bubble",
  "lapping_during_walking",
  "vaginal_gas",
  "loss_of_water_after_bath",
  "vulval_area_other",
  "column_break_19",
  "vaginal_area",
  "after_delivery_bearing_down",
  "bearing_down_circumstances",
  "resumption_of_sexual_activity",
  "pain_rating",
  "satisfaction",
  "contraception_desired",
  "postpartum_return_of_menses",
  "vaginal_area_other",
  "section_break_25",
  "urinary_area",
  "water_consumption",
  "tea_coffee_consumption",
  "number_of_urination",
  "pollakiuria",
  "nycturia",
  "nycturia_times",
  "stop_test",
  "anticipation_urination",
  "column_break_39",
  "urgency_of_urination",
  "stress_incontinence_circumpstances",
  "overactive_bladder",
  "dysuria",
  "urinary_area_other",
  "section_break_43",
  "anal_area",
  "transit_since_delivery",
  "anal_incontinence",
  "urge",
  "dyschesia",
  "haemorrhoid",
  "column_break_53",
  "anal_area_other",
  "section_break_50",
  "pelvis_statis",
  "column_break_59",
  "resumption_of_sport",
  "sports_before_pregnancy",
  "section_break_53",
  "vulva_heading",
  "diasthasis",
  "physical_aperthognathia",
  "scar",
  "vaginal_bands",
  "bladder_position",
  "urethra_adherence",
  "column_break_69",
  "testing_heading",
  "fundus_apertognathia",
  "testing",
  "contraction_duration",
  "cough_test",
  "command_inversion",
  "column_break_75",
  "tonus_heading",
  "vaginal_walls",
  "anterior_contraction",
  "posterior_contraction",
  "left_contraction",
  "right_contraction",
  "print_settings",
  "letter_head"
 ],
 "fields": [
  {
   "default": "REEDUC-",
   "fieldname": "naming_series",
   "fieldtype": "Select",
   "hidden": 1,
   "label": "Series",
   "options": "REEDUC-"
  },
  {
   "fieldname": "patient_record",
   "fieldtype": "Link",
   "in_list_view": 1,
   "in_standard_filter": 1,
   "label": "Patient Record",
   "options": "Patient Record",
   "print_hide": 1,
   "reqd": 1,
   "search_index": 1,
   "set_only_once": 1
  },
  {
   "fieldname": "column_break_3",
   "fieldtype": "Column Break"
  },
  {
   "bold": 1,
   "fetch_from": "patient_record.patient_name",
   "fieldname": "patient_name",
   "fieldtype": "Data",
   "in_list_view": 1,
   "label": "Patient Name",
   "read_only": 1
  },
  {
   "fieldname": "section_break_2",
   "fieldtype": "Section Break"
  },
  {
   "fieldname": "consultation_purpose",
   "fieldtype": "Data",
   "label": "Consultation Purpose"
  },
  {
   "fieldname": "section_break_6",
   "fieldtype": "Section Break",
   "label": "Before Delivery"
  },
  {
   "default": "0",
   "fieldname": "before_delivery_bearing_down",
   "fieldtype": "Check",
   "label": "Bearing Down ?"
  },
  {
   "fieldname": "weight_gain",
   "fieldtype": "Float",
   "label": "Weight Gain (Kg)"
  },
  {
   "fieldname": "column_break_9",
   "fieldtype": "Column Break"
  },
  {
   "default": "0",
   "fieldname": "urinary_stress_incontinence",
   "fieldtype": "Check",
   "label": "Urinary Stress Incontinence ?"
  },
  {
   "depends_on": "eval:doc.urinary_stress_incontinence",
   "fieldname": "which_term",
   "fieldtype": "Int",
   "label": "At Which Term (Amenorrhea Weeks)"
  },
  {
   "fieldname": "after_delivery",
   "fieldtype": "Section Break",
   "label": "After Delivery"
  },
  {
   "fieldname": "vulval_area",
   "fieldtype": "Heading",
   "label": "Vulval Area"
  },
  {
   "default": "0",
   "fieldname": "vulval_apertognathia",
   "fieldtype": "Check",
   "label": "Vuval Apertognathia ?"
  },
  {
   "default": "0",
   "fieldname": "vulval_air_bubble",
   "fieldtype": "Check",
   "label": "Vulval Air Bubble ?"
  },
  {
   "default": "0",
   "fieldname": "lapping_during_walking",
   "fieldtype": "Check",
   "label": "Lapping During Walking ?"
  },
  {
   "default": "0",
   "fieldname": "vaginal_gas",
   "fieldtype": "Check",
   "label": "Vaginal Gas ?"
  },
  {
   "default": "0",
   "fieldname": "loss_of_water_after_bath",
   "fieldtype": "Check",
   "label": "Loss of Water after Bath ?"
  },
  {
   "fieldname": "vulval_area_other",
   "fieldtype": "Small Text",
   "label": "Other"
  },
  {
   "fieldname": "column_break_19",
   "fieldtype": "Column Break"
  },
  {
   "fieldname": "vaginal_area",
   "fieldtype": "Heading",
   "label": "Vaginal Area"
  },
  {
   "default": "0",
   "fieldname": "after_delivery_bearing_down",
   "fieldtype": "Check",
   "label": "Bearing Down ?"
  },
  {
   "depends_on": "eval:doc.after_delivery_bearing_down",
   "fieldname": "bearing_down_circumstances",
   "fieldtype": "Data",
   "label": "Circumstances"
  },
  {
   "default": "0",
   "fieldname": "resumption_of_sexual_activity",
   "fieldtype": "Check",
   "label": "Resumption of Sexual Activity ?"
  },
  {
   "depends_on": "eval:doc.resumption_of_sexual_activity",
   "fieldname": "pain_rating",
   "fieldtype": "Data",
   "label": "Pain Rating"
  },
  {
   "depends_on": "eval:doc.resumption_of_sexual_activity",
   "fieldname": "satisfaction",
   "fieldtype": "Data",
   "label": "Satisfaction"
  },
  {
   "fieldname": "contraception_desired",
   "fieldtype": "Data",
   "label": "Contraception Desired"
  },
  {
   "fieldname": "postpartum_return_of_menses",
   "fieldtype": "Date",
   "label": "Postpartum Return of Menses"
  },
  {
   "fieldname": "vaginal_area_other",
   "fieldtype": "Small Text",
   "label": "Other"
  },
  {
   "fieldname": "section_break_25",
   "fieldtype": "Section Break"
  },
  {
   "fieldname": "urinary_area",
   "fieldtype": "Heading",
   "label": "Urinary Area"
  },
  {
   "fieldname": "water_consumption",
   "fieldtype": "Data",
   "label": "Water Consumption/24h"
  },
  {
   "fieldname": "tea_coffee_consumption",
   "fieldtype": "Data",
   "label": "Tea/Coffee Consumtion/24h"
  },
  {
   "fieldname": "number_of_urination",
   "fieldtype": "Int",
   "label": "Number of Urination/24h"
  },
  {
   "default": "0",
   "fieldname": "pollakiuria",
   "fieldtype": "Check",
   "label": "Pollakiuria"
  },
  {
   "default": "0",
   "fieldname": "nycturia",
   "fieldtype": "Check",
   "label": "Nycturia"
  },
  {
   "depends_on": "eval:(doc.nycturia==1)",
   "fieldname": "nycturia_times",
   "fieldtype": "Int",
   "label": "Number of Times"
  },
  {
   "default": "0",
   "fieldname": "stop_test",
   "fieldtype": "Check",
   "label": "Urination Stop Test"
  },
  {
   "default": "0",
   "fieldname": "anticipation_urination",
   "fieldtype": "Check",
   "label": "Anticipation Urination ?"
  },
  {
   "fieldname": "column_break_39",
   "fieldtype": "Column Break"
  },
  {
   "fieldname": "urgency_of_urination",
   "fieldtype": "Select",
   "label": "Urgency of Urination or Stress Incontinence",
   "options": "\nUrgency of Urination\nStress Incontinence"
  },
  {
   "depends_on": "eval:(doc.urgency_of_urination!='')",
   "fieldname": "stress_incontinence_circumpstances",
   "fieldtype": "Data",
   "label": "Circumpstances"
  },
  {
   "fieldname": "overactive_bladder",
   "fieldtype": "Select",
   "label": "Overactive Bladder",
   "options": "\nNo\nAssociated to Urinary Incontinence\nAlone"
  },
  {
   "fieldname": "dysuria",
   "fieldtype": "Small Text",
   "label": "Dysuria (Details)"
  },
  {
   "fieldname": "urinary_area_other",
   "fieldtype": "Small Text",
   "label": "Other"
  },
  {
   "fieldname": "section_break_43",
   "fieldtype": "Section Break"
  },
  {
   "fieldname": "anal_area",
   "fieldtype": "Heading",
   "label": "Anal Area"
  },
  {
   "fieldname": "transit_since_delivery",
   "fieldtype": "Data",
   "label": "Transit Since Delivery"
  },
  {
   "fieldname": "anal_incontinence",
   "fieldtype": "Data",
   "label": "Anal Incontinence"
  },
  {
   "fieldname": "urge",
   "fieldtype": "Data",
   "label": "Urge ?"
  },
  {
   "description": "Difficult Defecation ? Frequency ? Since When ? Type of Thrust ? Sensation of not Expelling Fully ?",
   "fieldname": "dyschesia",
   "fieldtype": "Data",
   "label": "Dyschesia"
  },
  {
   "fieldname": "haemorrhoid",
   "fieldtype": "Data",
   "label": "Haemorrhoid"
  },
  {
   "fieldname": "column_break_53",
   "fieldtype": "Column Break"
  },
  {
   "fieldname": "anal_area_other",
   "fieldtype": "Small Text",
   "label": "Other"
  },
  {
   "fieldname": "section_break_50",
   "fieldtype": "Section Break"
  },
  {
   "fieldname": "pelvis_statis",
   "fieldtype": "Data",
   "label": "Pelvis Statics"
  },
  {
   "fieldname": "column_break_59",
   "fieldtype": "Column Break"
  },
  {
   "fieldname": "resumption_of_sport",
   "fieldtype": "Data",
   "label": "Resumption of Sporting Activities"
  },
  {
   "fieldname": "section_break_53",
   "fieldtype": "Section Break",
   "label": "Physical Examination"
  },
  {
   "fieldname": "vulva_heading",
   "fieldtype": "Heading",
   "label": "Vulva"
  },
  {
   "default": "0",
   "fieldname": "diasthasis",
   "fieldtype": "Check",
   "label": "Diasthasis ?",
   "options": "\n"
  },
  {
   "fieldname": "physical_aperthognathia",
   "fieldtype": "Select",
   "label": "Aperthognathia",
   "options": "\nOpen\nSemi-Open\nSemi-Closed\nClosed"
  },
  {
   "fieldname": "scar",
   "fieldtype": "Data",
   "label": "Scar"
  },
  {
   "fieldname": "vaginal_bands",
   "fieldtype": "Data",
   "label": "Vaginal Bands"
  },
  {
   "fieldname": "bladder_position",
   "fieldtype": "Data",
   "label": "Bladder Position"
  },
  {
   "default": "0",
   "fieldname": "urethra_adherence",
   "fieldtype": "Check",
   "label": "Urethra Adherence ?",
   "options": "\n"
  },
  {
   "fieldname": "column_break_69",
   "fieldtype": "Column Break"
  },
  {
   "fieldname": "testing_heading",
   "fieldtype": "Heading",
   "label": "Testing"
  },
  {
   "fieldname": "fundus_apertognathia",
   "fieldtype": "Data",
   "label": "Fundus Apertognathia"
  },
  {
   "fieldname": "testing",
   "fieldtype": "Select",
   "label": "Testing",
   "options": "\n0\n1\n2\n3\n4\n5"
  },
  {
   "fieldname": "contraction_duration",
   "fieldtype": "Data",
   "label": "Contraction Duration"
  },
  {
   "fieldname": "cough_test",
   "fieldtype": "Select",
   "label": "Cough Test",
   "options": "\nDomed Perineum\nClosing Perineum\nStationary Perineum"
  },
  {
   "default": "0",
   "fieldname": "command_inversion",
   "fieldtype": "Check",
   "label": "Command Inversion ?",
   "options": "\n"
  },
  {
   "fieldname": "column_break_75",
   "fieldtype": "Column Break"
  },
  {
   "fieldname": "tonus_heading",
   "fieldtype": "Heading",
   "label": "Tonus"
  },
  {
   "description": "Tonic/Relaxed, Finger Spacing (cm)",
   "fieldname": "vaginal_walls",
   "fieldtype": "Data",
   "label": "Vaginal Walls"
  },
  {
   "fieldname": "anterior_contraction",
   "fieldtype": "Data",
   "label": "Anterior Contraction"
  },
  {
   "fieldname": "posterior_contraction",
   "fieldtype": "Data",
   "label": "Posterior Contraction"
  },
  {
   "fieldname": "left_contraction",
   "fieldtype": "Data",
   "label": "Left Contraction"
  },
  {
   "fieldname": "right_contraction",
   "fieldtype": "Data",
   "label": "Right Contraction"
  },
  {
   "collapsible": 1,
   "fieldname": "print_settings",
   "fieldtype": "Section Break",
   "label": "Print Settings"
  },
  {
   "fieldname": "letter_head",
   "fieldtype": "Link",
   "label": "Letter Head",
   "options": "Letter Head"
  },
  {
   "fieldname": "sports_before_pregnancy",
   "fieldtype": "HTML",
   "label": "Sports before pregnancy"
  }
 ],
 "modified": "2023-08-12 10:29:10.464427",
 "modified_by": "Administrator",
 "module": "Patients",
 "name": "Perineum Rehabilitation",
 "owner": "Administrator",
 "permissions": [
  {
   "create": 1,
   "delete": 1,
   "email": 1,
   "export": 1,
   "print": 1,
   "read": 1,
   "report": 1,
   "role": "System Manager",
   "share": 1,
   "write": 1
  },
  {
   "create": 1,
   "delete": 1,
   "email": 1,
   "export": 1,
   "import": 1,
   "print": 1,
   "read": 1,
   "report": 1,
   "role": "Midwife",
   "share": 1,
   "write": 1
  },
  {
   "create": 1,
   "delete": 1,
   "email": 1,
   "export": 1,
   "print": 1,
   "read": 1,
   "report": 1,
   "role": "Midwife Substitute",
   "share": 1,
   "write": 1
  }
 ],
 "quick_entry": 1,
 "route": "/desk#Form/DocType/Perineum Rehabilitation",
 "show_name_in_global_search": 1,
 "sort_field": "modified",
 "sort_order": "DESC",
 "timeline_field": "patient_record",
 "title_field": "patient_name",
 "track_changes": 1
}
