{
 "actions": [],
 "creation": "2019-06-10 08:45:12.791998",
 "doctype": "DocType",
 "engine": "InnoDB",
 "field_order": [
  "codification_name",
  "codification",
  "description",
  "rate",
  "social_security_share",
  "patient_share",
  "overbilling",
  "category"
 ],
 "fields": [
  {
   "fetch_from": "codification_name.codification",
   "fieldname": "codification",
   "fieldtype": "Data",
   "in_standard_filter": 1,
   "label": "Codification",
   "read_only": 1
  },
  {
   "fetch_from": "codification_name.codification_description",
   "fieldname": "description",
   "fieldtype": "Small Text",
   "in_list_view": 1,
   "label": "Description",
   "read_only": 1
  },
  {
   "fetch_from": "codification_name.basic_price",
   "fieldname": "rate",
   "fieldtype": "Currency",
   "in_list_view": 1,
   "label": "Rate",
   "read_only": 1
  },
  {
   "fieldname": "social_security_share",
   "fieldtype": "Currency",
   "in_list_view": 1,
   "label": "Social Security Share",
   "read_only": 1
  },
  {
   "fieldname": "patient_share",
   "fieldtype": "Currency",
   "in_list_view": 1,
   "label": "Patient Share",
   "read_only": 1
  },
  {
   "fieldname": "overbilling",
   "fieldtype": "Currency",
   "label": "Overbilling",
   "read_only": 1
  },
  {
   "fieldname": "codification_name",
   "fieldtype": "Link",
   "in_list_view": 1,
   "label": "Codification Name",
   "options": "Codification",
   "read_only": 1
  },
  {
   "fieldname": "category",
   "fieldtype": "Select",
   "hidden": 1,
   "label": "Category",
   "options": "codification\nallowance\nwithout_codification"
  }
 ],
 "istable": 1,
 "links": [],
 "modified": "2023-10-15 22:18:32.737658",
 "modified_by": "Administrator",
 "module": "Patients",
 "name": "Consultation Items",
 "owner": "Administrator",
 "permissions": [],
 "sort_field": "modified",
 "sort_order": "DESC",
 "states": [],
 "track_changes": 1
}