{
 "actions": [],
 "allow_rename": 1,
 "autoname": "field:payment_method",
 "creation": "2019-04-08 20:11:45.644609",
 "doctype": "DocType",
 "editable_grid": 1,
 "engine": "InnoDB",
 "field_order": [
  "payment_method",
  "payment_type",
  "accounting_item",
  "column_break_4",
  "bank_account",
  "section_break_5",
  "default_incoming",
  "default_outgoing"
 ],
 "fields": [
  {
   "fieldname": "payment_method",
   "fieldtype": "Data",
   "in_list_view": 1,
   "label": "Payment Method",
   "reqd": 1,
   "unique": 1
  },
  {
   "fieldname": "payment_type",
   "fieldtype": "Select",
   "label": "Payment Type",
   "options": "Bank\nCash"
  },
  {
   "depends_on": "eval:doc.payment_type==\"Cash\"",
   "fieldname": "accounting_item",
   "fieldtype": "Link",
   "label": "Accounting Item",
   "options": "Accounting Item"
  },
  {
   "fieldname": "column_break_4",
   "fieldtype": "Column Break"
  },
  {
   "depends_on": "eval:doc.payment_type==\"Bank\"",
   "fieldname": "bank_account",
   "fieldtype": "Link",
   "label": "Bank Account",
   "options": "Bank Account"
  },
  {
   "fieldname": "section_break_5",
   "fieldtype": "Section Break"
  },
  {
   "default": "0",
   "fieldname": "default_incoming",
   "fieldtype": "Check",
   "label": "Default Incoming Payment Method"
  },
  {
   "default": "0",
   "fieldname": "default_outgoing",
   "fieldtype": "Check",
   "label": "Default Outgoing Payment Method"
  }
 ],
 "links": [],
 "modified": "2023-10-12 22:27:27.033374",
 "modified_by": "Administrator",
 "module": "Accounting",
 "name": "Payment Method",
 "naming_rule": "By fieldname",
 "owner": "Administrator",
 "permissions": [
  {
   "create": 1,
   "delete": 1,
   "email": 1,
   "export": 1,
   "print": 1,
   "read": 1,
   "report": 1,
   "role": "System Manager",
   "select": 1,
   "share": 1,
   "write": 1
  },
  {
   "create": 1,
   "delete": 1,
   "email": 1,
   "export": 1,
   "print": 1,
   "read": 1,
   "report": 1,
   "role": "Midwife",
   "select": 1,
   "share": 1,
   "write": 1
  },
  {
   "create": 1,
   "delete": 1,
   "email": 1,
   "export": 1,
   "print": 1,
   "read": 1,
   "report": 1,
   "role": "Midwife Substitute",
   "select": 1,
   "share": 1,
   "write": 1
  },
  {
   "create": 1,
   "delete": 1,
   "email": 1,
   "export": 1,
   "print": 1,
   "read": 1,
   "report": 1,
   "role": "Physician",
   "select": 1,
   "share": 1,
   "write": 1
  }
 ],
 "sort_field": "modified",
 "sort_order": "DESC",
 "states": []
}
