[
	{
		"patient_first_name": "$first_name",
		"patient_last_name": "$last_name",
		"allergies": ["$table", 1, "$synthetize:Patient Allergies"],
		"vaccinations": ["$table", 5, "$synthetize:Patient Vaccinations"],
		"commuting_time": [
			"$random:int",
			1,
			60
		],
		"patient_date_of_birth": [
			"$random:date",
			"1980-01-01",
			"2010-01-01"
		],
		"doctype": "Patient Record",
		"origin": "$origin",
		"profession": "$profession",
		"current_activity_status": ["$random:choices", "Sans Activité", "Temps Plein", ""],
		"urinary_infection": "$random:bool",
		"urinary_infection_details": ["$random_file_value", "urinary_infection_details"],
		"high_blood_pressure": "$random:bool",
		"high_blood_pressure_details": "$high_blood_pressure_details",
		"ophtalmology": "$random:bool",
		"ophtalmology_details": "$ophtalmology_details",
		"migraine": "$random:bool",
		"migraine_details": "$migraine_details",
		"diabetes_cholesterol_cholestasis": "$random:bool",
		"diabetes_cholesterol_cholestasis_details": "$diabetes_cholesterol_cholestasis_details",
		"cerebrovascular_accident_aneurysm_phlebitis": ["$random:bool", 0.1],
		"cerebrovascular_accident_aneurysm_phlebitis_details": "$cerebrovascular_accident_aneurysm_phlebitis_details",
		"myocardial_infarction_cardiopathy": ["$random:bool", 0.1],
		"hormonal_dependent_cancer": ["$random:bool", 0.1],
		"hormonal_dependent_cancer_details": "$hormonal_dependent_cancer_details",
		"long_term_disease": "$long_term_disease",
		"first_menses": [
			"$random:int",
			8,
			17
		],
		"contraception": "$contraception",
		"regular_cycles": "$random:text",
		"genital_herpes": ["$random:bool", 0.1],
		"genital_herpes_details": "$random:text",
		"assistant_medical_procreation": ["$random:bool", 0.1],
		"assistant_medical_procreation_details": ["$random_file_value", "assistant_medical_procreation_details"],
		"additional_comments": ["$random_file_value", "additional_comments"],
		"height": ["$random:float", 1.6, 1.9],
		"weight": ["$random:int", 50, 100],
		"mother_background": "$random:text",
		"father_background": "$random:text",
		"spouse_profession": "$spouse_profession",
		"family_situation": ["$random:choices", "Cohabitation", "Married", "PACS"],
		"family_situation_details": "$random:text",
		"antecedent_history": "$random:text",
		"valid_group_card": ["$random:bool", 0.8]
	},
	{
		"$fragment": "fragments/Patient",
		"$extends": "Patient Record"
	},
	{
		"email": ["$eval", "f'''{doc.first_name.lower().encode('ascii', 'ignore').decode()}.{doc.last_name.lower().encode('ascii', 'ignore').decode()}@example.com'''"],
		"last_name": "$last_name",
		"first_name": "$first_name",
		"doctype": "Professional Information Card"
	},
	{
		"$fragment": "fragments/Midwife",
		"$extends": "Professional Information Card"
	},
	{
		"doctype": "Patient Vaccinations",
		"patient_vaccinations": ["$random:choices", "Covid 19", "", "", ""],
		"date": [
			"$random:date",
			"1980-01-01",
			"2024-12-31"
		],
		"remarks": "$random:text"

	},
	// {
	// 	"bank_account": "$random",
	// 	"date": "",
	// 	"balance": "",
	// 	"doctype": "Bank Statement Balance",
	// 	"name": "Test Bank Statement Balance 1"
	// },
	// {
	// 	"correspondent": "",
	// 	"doctype": "Correspondent",
	// 	"name": "Test Correspondent 1"
	// },
	// {
	// 	"doctype": "Custom Patient Record Dashboard",
	// 	"name": "Test Custom Patient Record Dashboard 1"
	// },
	// {
	// 	"website_title": "Démo ToobibPro",
	// 	"title": "Démo ToobibPro",
	// 	"subtitle": "Connectez-vous pour prendre rendez-vous",
	// 	"button_label": "Prendre un rendez-vous",
	// 	"button_link": "/appointment",
	// 	"doctype": "Default Template",
	// 	"body": [],
	// 	"name": "Test Default Template 1"
	// },
	{
		"$fragment": "fragments/DLT1",
		"$fixture": 1,
		"title": "Douleurs + Fer",
		"doctype": "Drug List Template",
		"drug_list_model": [
			{
				"drug": "Paracétamol 500mg",
				"posology": "1 matin + 1 soir",
				"pharmaceutical_form": "Cachet",
				"treatment_duration": "7 jours MAX"
			},
			{
				"drug": "Oligomax Fer",
				"posology": "1 jour / 2",
				"pharmaceutical_form": "Soluble",
				"treatment_duration": "1 mois"
			}
		]
	},

	// ------------------------------------------------------------------------
	// APPOINTMENTS
	// ------------------------------------------------------------------------
	{
		"$fragment": "fragments/Appointment/Solo",
		"doctype": "Appointment",
		"patient_record": "$reqd",
		"practitioner": "$reqd",
		"appointment_type": ["$random:choices", "Consultation simple", "Consultation de grossesse", "Consultation de gynécologie"],
		"start_dt": "$random:today:time",
		"duration": ["$fetch_from", "appointment_type.duration"],
		"status": "Confirmed",
		"reminder": false,
		"sms_reminder": false
	},
	{
		"$fragment": "fragments/Appointment/Group",
		"$extends": ["fragments/Appointment/Solo"],
		"appointment_type": "Atelier en groupe [démo]"
	},


	// ------------------------------------------------------------------------
	// CONSULTATIONS
	// ------------------------------------------------------------------------

	// Base
	{
		"$fragment": "fragments/Consultation",
		"patient_record": "$reqd",
		"practitioner": "$reqd",
		"consultation_date": "$today",
		"consultation_purpose": "$random",
		"third_party_payment": 1,
		"hundred_percent_maternity": 1,
		"codification": [
			"$table",
			1,
			{
				"codification": [
					"$cases",
					["parent.doctype=='Free Consultation'", "C"],
					["parent.doctype=='Perineum Rehabilitation Consultation'", "SF 7,5"],
					["parent.doctype=='Prenatal Interview Consultation'", "SF 15"],
					["1", "C"]
				]
			}
		]
	},
	{
		"$fragment": "fragments/Group Consultation",
		"group": true,
		"number_of_patient": [
			"$random:int",
			2,
			10
		]
	},

	// Pregnancy
	{
		"doctype": "Pregnancy",
		"patient_record": "$reqd",
		"beginning_of_pregnancy": "$today",
		"last_menstrual_period": ["$eval", "frappe.utils.add_days(doc.beginning_of_pregnancy, -40)"]
	},
	{
		"doctype": "Pregnancy Consultation",
		"$extends": "fragments/Consultation",
		"pregnancy_folder": [
			"$get_or_generate",
			[
				"Pregnancy",
				{ "patient_record": "$eval:doc.patient_record" }
			],
			{
				"spec_name": "Pregnancy",
				"patient_record": "$eval:doc.patient_record"
			}
		]
	},

	// Gynecology
	{
		"doctype": "Gynecology",
		"patient_record": "$reqd"
	},
	{
		"doctype": "Gynecological Consultation",
		"$extends": "fragments/Consultation",
		"gynecological_folder": [
			"$get_or_generate",
			[
				"Gynecology",
				{ "patient_record": "$eval:doc.patient_record" }
			],
			{
				"spec_name": "Gynecology",
				"patient_record": "$eval:doc.patient_record"
			}
		]
	},

	// Birth Preparation
	{
		"doctype": "Birth Preparation Consultation",
		"$extends": "fragments/Consultation",
		"preparation_type": "$random"
	},
	{
		"$fragment": "fragments/Group BP Consultation",
		"doctype": "Birth Preparation Consultation",
		"$extends": ["fragments/Consultation", "fragments/Group Consultation"]
	},

	// Prenatal Interview
	{
		"doctype": "Prenatal Interview",
		"patient_record": "$reqd"
	},
	{
		"doctype": "Prenatal Interview Consultation",
		"$extends": "fragments/Consultation",
		"prenatal_interview_folder": [
			"$get_or_generate",
			[
				"Prenatal Interview",
				{ "patient_record": "$eval:doc.patient_record" }
			],
			{
				"spec_name": "Prenatal Interview",
				"patient_record": "$eval:doc.patient_record"
			}
		]
	},

	// Perineum Rehabilitation
	{
		"doctype": "Perineum Rehabilitation",
		"patient_record": "$reqd"
	},
	{
		"doctype": "Perineum Rehabilitation Consultation",
		"$extends": "fragments/Consultation",
		"perineum_rehabilitation_folder": [
			"$get_or_generate",
			[
				"Perineum Rehabilitation",
				{ "patient_record": "$eval:doc.patient_record" }
			],
			{
				"spec_name": "Perineum Rehabilitation",
				"patient_record": "$eval:doc.patient_record"
			}
		]
	},

	// Postnatal
	{
		"doctype": "Postnatal",
		"patient_record": "$reqd"
	},
	{
		"doctype": "Postnatal Consultation",
		"$extends": "fragments/Consultation",
		"pregnancy_folder": [
			"$get_or_generate",
			[
				"Pregnancy",
				{ "patient_record": "$eval:doc.patient_record" }
			],
			"$raise:Cannot do Postnatal Consultation without Pregnancy created by Pregnancy Consultation"
		]
	},

	// Early Postnatal
	{
		"doctype": "Early Postnatal",
		"patient_record": "$reqd"
	},
	{
		"doctype": "Early Postnatal Consultation",
		"$extends": "fragments/Consultation",
		"pregnancy_folder": [
			"$get_or_generate",
			[
				"Pregnancy",
				{ "patient_record": "$eval:doc.patient_record" }
			],
			"$raise:Cannot do Early Postnatal Consultation without Pregnancy created by Pregnancy Consultation"
		]
	},

	// Free Consultation
	{
		"$extends": "fragments/Consultation",
		"doctype": "Free Consultation",
		"consultation_purpose": "$random"
	},

	// Expenses

	{
		"$fragment": "fragments/Expense",
		"doctype": "Expense",
		"expense_type": "Miscellaneous",
		"label": "$random",
		"amount": ["$random:float", 100, 500],
		"practitioner": "$reqd",
		"party": "$reqd",
		"accounting_item": "Autres frais divers de gestion"
	},

	// ------------------------------------------------------------------------



	// {
	// 	"doctype": "Echography Type",
	// 	"_existing": 1
	// },
	// {
	// 	"electrostimulation_frequency": "",
	// 	"doctype": "Electrostimulation Frequency",
	// 	"name": "Test Electrostimulation Frequency 1"
	// },
	// {
	// 	"electrostimulation_program": "",
	// 	"doctype": "Electrostimulation Program",
	// 	"name": "Test Electrostimulation Program 1"
	// },
	// {
	// 	"doctype": "Employment Status",
	// 	"_existing": 1
	// },
	// {
	// 	"doctype": "Eutony Exercise",
	// 	"name": "Test Eutony Exercise 1"
	// },
	// {
	// 	"naming_series": "",
	// 	"expense_type": "",
	// 	"label": "",
	// 	"amount": "",
	// 	"practitioner": "",
	// 	"transaction_date": "",
	// 	"doctype": "Expense",
	// 	"name": "Test Expense 1"
	// },
	// {
	// 	"patient_record": "",
	// 	"practitioner": "",
	// 	"consultation_date": "",
	// 	"doctype": "Prescription",
	// 	"name": "Test Prescription 1"
	// },
	// {
	// 	"naming_series": "",
	// 	"posting_date": "",
	// 	"accounting_item": "",
	// 	"debit": "",
	// 	"credit": "",
	// 	"currency": "",
	// 	"accounting_journal": "",
	// 	"reference_type": "",
	// 	"reference_name": "",
	// 	"link_doctype": "",
	// 	"link_docname": "",
	// 	"practitioner": "",
	// 	"doctype": "General Ledger Entry",
	// 	"name": "Test General Ledger Entry 1"
	// },
	// {
	// 	"doctype": "Lab Exam Template",
	// 	"_existing": 1
	// },
	// {
	// 	"doctype": "Lab Exam Type",
	// 	"_existing": 1
	// },
	// {
	// 	"naming_series": "",
	// 	"practitioner": "",
	// 	"start_dt": "",
	// 	"doctype": "Appointment",
	// 	"name": "Test Appointment 1"
	// },
	// {
	// 	"appointment_type": "",
	// 	"duration": "",
	// 	"doctype": "Appointment Type",
	// 	"name": "Test Appointment Type 1"
	// },
	// {
	// 	"doctype": "",
	// 	"name": "Test  1"
	// },
	// {
	// 	"naming_series": "",
	// 	"asset_type": "",
	// 	"asset_label": "",
	// 	"acquisition_date": "",
	// 	"asset_value": "",
	// 	"professional_percentage": "",
	// 	"doctype": "Asset",
	// 	"name": "Test Asset 1"
	// },
	// {
	// 	"bank_account_name": "",
	// 	"accounting_item": "",
	// 	"doctype": "Bank Account",
	// 	"name": "Test Bank Account 1"
	// },
	// {
	// 	"year": "",
	// 	"year_start_date": "",
	// 	"year_end_date": "",
	// 	"doctype": "",
	// 	"name": "Test  1"
	// },
	// {
	// 	"currency": "EUR",
	// 	"doctype": "ToobibPro Settings"
	// },
	// {
	// 	"maternity": "",
	// 	"doctype": "Maternity",
	// 	"name": "Test Maternity 1"
	// },
	// {
	// 	"fiscal_year": "",
	// 	"deductible_amount": "",
	// 	"limit": "",
	// 	"doctype": "Meal Expense Deduction",
	// 	"name": "Test Meal Expense Deduction 1"
	// },
	// {
	// 	"operation_type": "",
	// 	"naming_series": "",
	// 	"posting_date": "",
	// 	"practitioner": "",
	// 	"doctype": "Miscellaneous Operation",
	// 	"name": "Test Miscellaneous Operation 1"
	// },
	// {
	// 	"website_title": "",
	// 	"title": "",
	// 	"primary_color": "",
	// 	"secondary_color": "",
	// 	"doctype": "One Page Wonder",
	// 	"name": "Test One Page Wonder 1"
	// },
	// {
	// 	"origin": "",
	// 	"doctype": "Origin",
	// 	"name": "Test Origin 1"
	// },
	// {
	// 	"doctype": "Payment Method",
	// 	"_existing": 1
	// },
	// {
	// 	"doctype": "Placental Delivery",
	// 	"_existing": 1
	// },
















	// {
	// 	"patient_record": "",
	// 	"doctype": "Prenatal Interview",
	// 	"name": "Test Prenatal Interview 1"
	// },
	// {
	// 	"naming_series": "",
	// 	"patient_record": "",
	// 	"prenatal_interview_folder": "",
	// 	"practitioner": "",
	// 	"consultation_date": "",
	// 	"doctype": "Prenatal Interview Consultation",
	// 	"name": "Test Prenatal Interview Consultation 1"
	// },
	// {
	// 	"doctype": "Profession",
	// 	"_existing": 1
	// },
	// {
	// 	"naming_series": "",
	// 	"start_date": "",
	// 	"end_date": "",
	// 	"practitioner": "",
	// 	"substitute": "",
	// 	"fee_percentage": "",
	// 	"doctype": "Replacement",
	// 	"name": "Test Replacement 1"
	// },
	// {
	// 	"naming_series": "",
	// 	"revenue_type": "",
	// 	"label": "",
	// 	"amount": "",
	// 	"practitioner": "",
	// 	"transaction_date": "",
	// 	"doctype": "Revenue",
	// 	"name": "Test Revenue 1"
	// },
	// {
	// 	"status": "",
	// 	"doctype": "SMS Reminder",
	// 	"name": "Test SMS Reminder 1"
	// },
	// {
	// 	"sport_name": "",
	// 	"doctype": "Sport",
	// 	"name": "Test Sport 1"
	// },
	// {
	// 	"doctype": "Surgical Intervention",
	// 	"_existing": 1
	// },
	// {
	// 	"vaccine": "",
	// 	"doctype": "Vaccine",
	// 	"name": "Test Vaccine 1"
	// },
	// {
	// 	"doctype": "Weight Tracking",
	// 	"name": "Test Weight Tracking 1"
	// },

	{}
]