{
 "actions": [],
 "autoname": "field:session_type",
 "creation": "2017-03-16 12:55:10.103948",
 "doctype": "DocType",
 "document_type": "Setup",
 "editable_grid": 1,
 "engine": "InnoDB",
 "field_order": [
  "session_type"
 ],
 "fields": [
  {
   "fieldname": "session_type",
   "fieldtype": "Data",
   "in_list_view": 1,
   "label": "Session Type",
   "reqd": 1,
   "unique": 1
  }
 ],
 "links": [],
 "modified": "2023-10-12 22:10:10.057469",
 "modified_by": "Administrator",
 "module": "Patients",
 "name": "Birth Preparation Session Type",
 "naming_rule": "By fieldname",
 "owner": "Administrator",
 "permissions": [
  {
   "create": 1,
   "delete": 1,
   "email": 1,
   "export": 1,
   "print": 1,
   "read": 1,
   "report": 1,
   "role": "Midwife",
   "select": 1,
   "share": 1,
   "write": 1
  },
  {
   "create": 1,
   "delete": 1,
   "email": 1,
   "export": 1,
   "print": 1,
   "read": 1,
   "report": 1,
   "role": "Midwife Substitute",
   "select": 1,
   "share": 1,
   "write": 1
  },
  {
   "create": 1,
   "delete": 1,
   "email": 1,
   "export": 1,
   "print": 1,
   "read": 1,
   "report": 1,
   "role": "Physician",
   "select": 1,
   "share": 1,
   "write": 1
  }
 ],
 "quick_entry": 1,
 "sort_field": "modified",
 "sort_order": "DESC",
 "states": [],
 "title_field": "session_type",
 "track_changes": 1
}
