{
 "custom_fields": [
  {
   "_assign": null,
   "_comments": null,
   "_liked_by": null,
   "_user_tags": null,
   "allow_in_quick_entry": 0,
   "allow_on_submit": 0,
   "bold": 0,
   "collapsible": 0,
   "collapsible_depends_on": null,
   "columns": 0,
   "creation": "2017-06-05 18:25:08.955272",
   "default": null,
   "depends_on": null,
   "description": null,
   "docstatus": 0,
   "dt": "Contact",
   "fetch_from": null,
   "fetch_if_empty": 0,
   "fieldname": "patient_record",
   "fieldtype": "Link",
   "hidden": 0,
   "hide_border": 0,
   "hide_days": 0,
   "hide_seconds": 0,
   "idx": 18,
   "ignore_user_permissions": 0,
   "ignore_xss_filter": 0,
   "in_global_search": 0,
   "in_list_view": 0,
   "in_preview": 0,
   "in_standard_filter": 0,
   "insert_after": "unsubscribed",
   "is_system_generated": 0,
   "is_virtual": 0,
   "label": "Patient Record",
   "length": 0,
   "mandatory_depends_on": null,
   "modified": "2023-08-05 18:25:08.955272",
   "modified_by": "Administrator",
   "module": null,
   "name": "Contact-patient_record",
   "no_copy": 0,
   "non_negative": 0,
   "options": "Patient Record",
   "owner": "Administrator",
   "permlevel": 0,
   "precision": "",
   "print_hide": 0,
   "print_hide_if_no_value": 0,
   "print_width": null,
   "read_only": 0,
   "read_only_depends_on": null,
   "report_hide": 0,
   "reqd": 0,
   "search_index": 0,
   "translatable": 0,
   "unique": 0,
   "width": null
  },
  {
   "_assign": null,
   "_comments": null,
   "_liked_by": null,
   "_user_tags": null,
   "allow_in_quick_entry": 0,
   "allow_on_submit": 0,
   "bold": 0,
   "collapsible": 0,
   "collapsible_depends_on": null,
   "columns": 0,
   "creation": "2017-03-13 16:34:34.364617",
   "default": null,
   "depends_on": null,
   "description": null,
   "docstatus": 0,
   "dt": "Contact",
   "fetch_from": null,
   "fetch_if_empty": 0,
   "fieldname": "patient_name",
   "fieldtype": "Data",
   "hidden": 0,
   "hide_border": 0,
   "hide_days": 0,
   "hide_seconds": 0,
   "idx": 19,
   "ignore_user_permissions": 0,
   "ignore_xss_filter": 0,
   "in_global_search": 0,
   "in_list_view": 0,
   "in_preview": 0,
   "in_standard_filter": 0,
   "insert_after": "patient_record",
   "is_system_generated": 0,
   "is_virtual": 0,
   "label": "Patient Name",
   "length": 0,
   "mandatory_depends_on": null,
   "modified": "2023-08-13 16:34:34.364617",
   "modified_by": "Administrator",
   "module": null,
   "name": "Contact-patient_name",
   "no_copy": 0,
   "non_negative": 0,
   "options": null,
   "owner": "Administrator",
   "permlevel": 0,
   "precision": "",
   "print_hide": 0,
   "print_hide_if_no_value": 0,
   "print_width": null,
   "read_only": 1,
   "read_only_depends_on": null,
   "report_hide": 0,
   "reqd": 0,
   "search_index": 0,
   "translatable": 0,
   "unique": 0,
   "width": null
  }
 ],
 "custom_perms": [
  {
   "_assign": null,
   "_comments": null,
   "_liked_by": null,
   "_user_tags": null,
   "amend": 0,
   "cancel": 0,
   "create": 1,
   "creation": "2023-05-29 10:23:11.441504",
   "delete": 1,
   "docstatus": 0,
   "email": 1,
   "export": 1,
   "idx": 0,
   "if_owner": 0,
   "import": 1,
   "modified": "2023-08-29 10:23:11.441504",
   "modified_by": "Administrator",
   "name": "ad4e4be9da",
   "owner": "Administrator",
   "parent": "Contact",
   "permlevel": 0,
   "print": 1,
   "read": 1,
   "report": 1,
   "role": "Midwife",
   "select": 1,
   "set_user_permissions": 0,
   "share": 1,
   "submit": 0,
   "write": 1
  },
  {
   "_assign": null,
   "_comments": null,
   "_liked_by": null,
   "_user_tags": null,
   "amend": 0,
   "cancel": 0,
   "create": 1,
   "creation": "2023-05-29 10:23:49.371625",
   "delete": 1,
   "docstatus": 0,
   "email": 1,
   "export": 1,
   "idx": 0,
   "if_owner": 0,
   "import": 1,
   "modified": "2023-08-29 10:23:49.371625",
   "modified_by": "Administrator",
   "name": "a9636b10a9",
   "owner": "Administrator",
   "parent": "Contact",
   "permlevel": 0,
   "print": 1,
   "read": 1,
   "report": 1,
   "role": "Midwife Substitute",
   "select": 1,
   "set_user_permissions": 0,
   "share": 1,
   "submit": 0,
   "write": 1
  }
 ],
 "doctype": "Contact",
 "links": [],
 "property_setters": [
  {
   "_assign": null,
   "_comments": null,
   "_liked_by": null,
   "_user_tags": null,
   "creation": "2017-06-05 18:25:21.704707",
   "default_value": null,
   "doc_type": "Contact",
   "docstatus": 0,
   "doctype_or_field": "DocType",
   "field_name": null,
   "idx": 0,
   "is_system_generated": 1,
   "modified": "2023-08-05 18:25:21.704707",
   "modified_by": "Administrator",
   "module": null,
   "name": "Contact-read_only_onload",
   "owner": "Administrator",
   "property": "read_only_onload",
   "property_type": "Check",
   "row_name": null,
   "value": null
  },
  {
   "_assign": null,
   "_comments": null,
   "_liked_by": null,
   "_user_tags": null,
   "creation": "2017-03-13 16:34:34.182229",
   "default_value": null,
   "doc_type": "Contact",
   "docstatus": 0,
   "doctype_or_field": "DocType",
   "field_name": null,
   "idx": 0,
   "is_system_generated": 1,
   "modified": "2023-08-13 16:34:34.182229",
   "modified_by": "Administrator",
   "module": null,
   "name": "Contact-sort_field",
   "owner": "Administrator",
   "property": "sort_field",
   "property_type": "Data",
   "row_name": null,
   "value": "modified"
  }
 ],
 "sync_on_migrate": 1
}
