{
 "align_labels_right": 0,
 "creation": "2017-07-25 10:28:30.962350",
 "css": ".col-xs-4, .col-xs-6, .col-xs-8, .col-xs-12 {\n\tpadding-top: 15px;\n}\n\ntable, tr, td, th, tbody, thead, tfoot, .col-xs-4, .col-xs-6, .col-xs-8, .col-xs-12, section {\n\tpage-break-inside: avoid !important;\n}\n\nh1, h2, h3, h4, h5, h6, p {\n\tcolor: #434d56 !important;\n}\n\nlabel, div {\n\tcolor: #4f5a64 !important;\n}\n\n.print-heading {\n\tmargin: 0.4in !important;\n\ttext-align: left;\n\ttext-transform: uppercase;\n\tpadding-bottom: 20px;\n\tmargin-bottom: 20px;\n\tborder-bottom: 1px solid #d1d8dd;\n}\n\n.print-format {\n\tpadding: 0;\n\tborder-radius: 5px;\n\tmargin: auto;\n\tposition: relative;\n}\n  \n.print-format th {\n\tbackground-color: #fff !important;\n}\n  \n.header-html {\n\tpadding: 0.4in;\n\tbackground: #f5fafc !important;\n\tborder-radius: 5px 5px 0 0;\n\twidth: 100%;\n}\n  \n.body-html {\n\tpadding: 0 0.8in 0.8in 0.8in;\n}\n  \n.table > tbody + tbody {\n\tborder-top: 1px solid #d1d8dd;\n}\n  \n.table > tbody > tr > th {\n\tborder-bottom: 1px solid #d1d8dd !important;\n}\n  \n.table > tbody > tr > td {\n\tborder-bottom: 1px solid #d1d8dd;\n}\n\n.vertical-table > tbody > tr > th {\n\tborder-right: 1px solid #d1d8dd !important;\n\twidth: 100px;\n}\n  \n@media print {\n\th1, h2, h3, h4, h5, h6, p, th, td, strong, a, b, ul, li {\n\t\tcolor: #434d56 !important;\n\t}\n\t.print-format {\n\t    padding: 0 25px;\n\t}\n\t.print-heading {\n\t\tmargin-top: 25mm;\n\t\tmargin-bottom: 25mm;\n\t\tcolor: #657381 !important;\n\t}\n\t.header-html {\n\t\tbackground: #f5fafc !important;\n\t}\n\t.body-html {\n\t\tpadding: 0 0.4in 0.4in 0.4in !important;\n\t}\n\t.letter-head-footer {\n\t\tpadding-top: 20px;\n\t}\n\ta[href]:after {\n\t\tcontent: none;\n\t}\n}",
 "custom_format": 1,
 "disabled": 0,
 "doc_type": "Gynecological Consultation",
 "docstatus": 0,
 "doctype": "Print Format",
 "font": "Default",
 "html": "{% include \"templates/includes/folder_header.html\" %}\n\n<div class=\"body-html\">\n\t<section>\n\t\t{% if doc.consultation_purpose %}\n\t\t<div>\n\t\t\t<h4>{{ _(\"Consultation\") }}</h4>\n\t\t</div>\n\t\t<div class=\"row data-field\">\n\t\t\t<div class=\"col-xs-4\">\n\t\t\t\t<label>{{ _(\"Consultation Purpose\") }}</label>\n\t\t\t\t{{ doc.consultation_purpose }}</div>\n\t\t</div>\n\t\t<br>\n\t\t{% endif %}\n\t</section>\n\t<section>\n\t\t{% if doc.general_health or doc.date_of_last_menses or doc.current_treatments %}\n\t\t<div class=\"row data-field\">\n\t\t\t{% if doc.general_health %}\n\t\t\t<div class=\"col-xs-4\">\n\t\t\t\t<label>{{ _(\"General Health\") }}</label>\n\t\t\t\t{{ doc.general_health }}</div>\n\t\t\t{% endif %}\n\t\t\t{% if doc.date_of_last_menses %}\n\t\t\t<div class=\"col-xs-4\">\n\t\t\t\t<label>{{ _(\"Date of Last Menses\") }}</label>\n\t\t\t\t{{ doc.date_of_last_menses }}</div>\n\t\t\t{% endif %}\n\t\t\t{% if doc.current_treatments %}\n\t\t\t<div class=\"col-xs-4\">\n\t\t\t\t<label>{{ _(\"Current Treatments\") }}</label>\n\t\t\t\t{{ doc.get_formatted(\"current_treatments\") }}</div>\n\t\t\t{% endif %}\n\t\t</div>\n\t\t<br>\n\t\t{% endif %}\n\t</section>\n\t<section>\n\t\t{% if doc.high_blood_pressure or doc.lower_limbs or doc.weight or doc.cardiopulmonary_auscultation %}\n\t\t<div class=\"row data-field\">\n\t\t\t{% if doc.high_blood_pressure %}\n\t\t\t<div class=\"col-xs-4\">\n\t\t\t\t<label>{{ _(\"High Blood Pressure\") }}</label>\n\t\t\t\t{{ doc.high_blood_pressure }}</div>\n\t\t\t{% endif %}\n\t\t\t{% if doc.lower_limbs %}\n\t\t\t<div class=\"col-xs-4\">\n\t\t\t\t<label>{{ _(\"Lower Limbs\") }}</label>\n\t\t\t\t{{ doc.lower_limbs }}</div>\n\t\t\t{% endif %}\n\t\t\t{% if doc.weight %}\n\t\t\t<div class=\"col-xs-4\">\n\t\t\t\t<label>{{ _(\"Weight\") }}</label>\n\t\t\t\t{{ doc.weight }}</div>\n\t\t\t{% endif %}\n\t\t\t{% if doc.cardiopulmonary_auscultation %}\n\t\t\t<div class=\"col-xs-4\">\n\t\t\t\t<label>{{ _(\"Cardiopulmonary Auscultation\") }}</label>\n\t\t\t\t{{ doc.cardiopulmonary_auscultation }}</div>\n\t\t\t{% endif %}\n\t\t</div>\n\t\t<br>\n\t\t{% endif %}\n\t</section>\n\t<section>\n\t\t{% if doc.breasts %}\n\t\t<div class=\"row data-field\">\n\t\t\t<div class=\"col-xs-12\">\n\t\t\t\t<label>{{ _(\"Breasts\") }}</label>\n\t\t\t\t{{ doc.get_formatted(\"breasts\") }}</div>\n\t\t</div>\n\t\t<br>\n\t\t{% endif %}\n\t</section>\n\t<section>\n\t\t{% if doc.thyroid or doc.abdomen %}\n\t\t<div class=\"row data-field\">\n\t\t\t{% if doc.thyroid %}\n\t\t\t<div class=\"col-xs-6\">\n\t\t\t\t<label>{{ _(\"Thyroid\") }}</label>\n\t\t\t\t{{ doc.get_formatted(\"thyroid\") }}</div>\n\t\t\t{% endif %}\n\t\t\t{% if doc.abdomen %}\n\t\t\t<div class=\"col-xs-6\">\n\t\t\t\t<label>{{ _(\"Abdomen\") }}</label>\n\t\t\t\t{{ doc.get_formatted(\"abdomen\") }}</div>\n\t\t\t{% endif %}\n\t\t</div>\n\t\t<br>\n\t\t{% endif %}\n\t</section>\n\t<section>\n\t\t{% if doc.vulva_speculum or doc.vaginal_exam %}\n\t\t<div class=\"row data-field\">\n\t\t\t{% if doc.vulva_speculum %}\n\t\t\t<div class=\"col-xs-6\">\n\t\t\t\t<label>{{ _(\"Vulva/Speculum\") }}</label>\n\t\t\t\t{{ doc.get_formatted(\"vulva_speculum\") }}</div>\n\t\t\t{% endif %}\n\t\t\t{% if doc.vaginal_exam %}\n\t\t\t<div class=\"col-xs-6\">\n\t\t\t\t<label>{{ _(\"Vaginal Exam\") }}</label>\n\t\t\t\t{{ doc.get_formatted(\"vaginal_exam\") }}</div>\n\t\t\t{% endif %}\n\t\t</div>\n\t\t<br>\n\t\t{% endif %}\n\t</section>\n\t<section>\n\t\t{% if doc.comments %}\n\t\t<div>\n\t\t\t<h4>{{ _(\"Comments\") }}</h4>\n\t\t</div>\n\t\t<div class=\"row data-field\">\n\t\t\t<div class=\"col-xs-12\">\n\t\t\t\t{{ doc.get_formatted(\"comments\") }}</div>\n\t\t</div>\n\t\t<br>\n\t\t{% endif %}\n\t</section>\n\n\n\t<div id=\"footer-html\" class=\"visible-pdf\">\n\t\t{% if not no_letterhead and footer %}\n\t\t<div class=\"letter-head-footer\">\n\t\t\t{{ footer }}\n\t\t</div>\n\t\t{% endif %}\n\t\t<p class=\"text-center small page-number visible-pdf\">\n\t\t\t{{ _(\"Page {0} of {1}\").format('<span class=\"page\"></span>', '<span class=\"topage\"></span>') }}\n\t\t</p>\n\t</div>\n</div>",
 "idx": 0,
 "line_breaks": 0,
 "modified": "2023-08-17 11:55:30.946680",
 "modified_by": "Administrator",
 "module": "Patients",
 "name": "Gynecological Consultation",
 "owner": "Administrator",
 "print_format_builder": 0,
 "print_format_type": "Jinja",
 "show_section_headings": 0,
 "standard": "Yes"
}
