{
 "aggregate_function_based_on": "amount",
 "color": "#63ADFF",
 "creation": "2023-03-06 17:14:06.957057",
 "docstatus": 0,
 "doctype": "Number Card",
 "document_type": "Revenue",
 "dynamic_filters_json": "[]",
 "filters_json": "[[\"Revenue\",\"transaction_date\",\"Timespan\",\"this year\",false]]",
 "function": "Sum",
 "idx": 0,
 "is_public": 1,
 "is_standard": 1,
 "label": "Revenue",
 "modified": "2023-08-06 20:58:14.847217",
 "modified_by": "Administrator",
 "module": "Accounting",
 "name": "Revenue",
 "owner": "Administrator",
 "parent_document_type": "",
 "report_function": "Sum",
 "report_name": "Revenue Journal",
 "show_percentage_stats": 1,
 "stats_time_interval": "Yearly",
 "type": "Document Type"
}
