{
 "creation": "2018-01-30 17:43:08.331631",
 "doctype": "DocType",
 "editable_grid": 1,
 "engine": "InnoDB",
 "field_order": [
  "patient_record",
  "date",
  "weight"
 ],
 "fields": [
  {
   "fieldname": "patient_record",
   "fieldtype": "Link",
   "in_list_view": 1,
   "in_standard_filter": 1,
   "label": "Patient Record",
   "options": "Patient Record",
   "read_only": 1
  },
  {
   "fieldname": "date",
   "fieldtype": "Datetime",
   "in_list_view": 1,
   "label": "Date",
   "read_only": 1
  },
  {
   "fieldname": "weight",
   "fieldtype": "Data",
   "in_list_view": 1,
   "label": "Weight",
   "read_only": 1
  }
 ],
 "in_create": 1,
 "modified": "2023-08-14 09:31:42.755741",
 "modified_by": "Administrator",
 "module": "Patients",
 "name": "Weight Tracking",
 "owner": "Administrator",
 "permissions": [
  {
   "create": 1,
   "delete": 1,
   "email": 1,
   "export": 1,
   "print": 1,
   "read": 1,
   "report": 1,
   "role": "System Manager",
   "share": 1,
   "write": 1
  },
  {
   "create": 1,
   "delete": 1,
   "email": 1,
   "export": 1,
   "print": 1,
   "read": 1,
   "report": 1,
   "role": "Midwife",
   "share": 1,
   "write": 1
  },
  {
   "create": 1,
   "delete": 1,
   "email": 1,
   "export": 1,
   "print": 1,
   "read": 1,
   "report": 1,
   "role": "Midwife Substitute",
   "share": 1,
   "write": 1
  },
  {
   "create": 1,
   "delete": 1,
   "email": 1,
   "export": 1,
   "print": 1,
   "read": 1,
   "report": 1,
   "role": "Appointment User",
   "share": 1,
   "write": 1
  }
 ],
 "quick_entry": 1,
 "read_only": 1,
 "sort_field": "modified",
 "sort_order": "DESC",
 "track_changes": 1
}
