{
 "charts": [],
 "color": "#CE9514",
 "content": "[{\"id\":\"uaYQAE6PJk\",\"type\":\"header\",\"data\":{\"text\":\"<span class=\\\"h4\\\"><b>Site web</b></span>\",\"col\":12}},{\"id\":\"gq70ZzxmVx\",\"type\":\"paragraph\",\"data\":{\"text\":\"Voir les pages sur le site web : <a class=\\\"gray indicator-pill no-indicator-dot no-underline\\\" href=\\\"/\\\" target=\\\"_blank\\\">Page d'accueil</a> <a class=\\\"gray indicator-pill no-indicator-dot no-underline\\\" href=\\\"/appointment\\\" target=\\\"_blank\\\">Prise de RDV en ligne</a>\",\"col\":12}},{\"id\":\"nmn1ebeyYY\",\"type\":\"card\",\"data\":{\"card_name\":\"Documents\",\"col\":4}},{\"id\":\"UaRjmqsp8_\",\"type\":\"card\",\"data\":{\"card_name\":\"ToobibPro Templates\",\"col\":4}},{\"id\":\"Tj3Eg1MQ5S\",\"type\":\"card\",\"data\":{\"card_name\":\"Settings\",\"col\":4}},{\"id\":\"Z7IA9QgCPY\",\"type\":\"spacer\",\"data\":{\"col\":12}}]",
 "creation": "2023-05-12 15:46:14.221553",
 "docstatus": 0,
 "doctype": "Workspace",
 "extends_page": "",
 "for_user": "",
 "hide_custom": 0,
 "icon": "uil uil-window",
 "idx": 0,
 "is_hidden": 0,
 "is_standard": 1,
 "label": "ToobibPro Website",
 "links": [
  {
   "columns": 0,
   "hidden": 0,
   "is_query_report": 0,
   "label": "ToobibPro Templates",
   "link_count": 2,
   "onboard": 0,
   "type": "Card Break"
  },
  {
   "columns": 0,
   "hidden": 0,
   "is_query_report": 0,
   "label": "Default Template",
   "link_count": 0,
   "link_to": "Default Template",
   "link_type": "DocType",
   "onboard": 0,
   "type": "Link"
  },
  {
   "columns": 0,
   "hidden": 0,
   "is_query_report": 0,
   "label": "One Page Wonder",
   "link_count": 0,
   "link_to": "One Page Wonder",
   "link_type": "DocType",
   "onboard": 0,
   "type": "Link"
  },
  {
   "columns": 0,
   "hidden": 0,
   "is_query_report": 0,
   "label": "Documents",
   "link_count": 1,
   "onboard": 0,
   "type": "Card Break"
  },
  {
   "columns": 0,
   "hidden": 0,
   "is_query_report": 0,
   "label": "Web Page",
   "link_count": 0,
   "link_to": "Web Page",
   "link_type": "DocType",
   "onboard": 0,
   "type": "Link"
  },
  {
   "columns": 0,
   "hidden": 0,
   "is_query_report": 0,
   "label": "Settings",
   "link_count": 3,
   "onboard": 0,
   "type": "Card Break"
  },
  {
   "columns": 0,
   "hidden": 0,
   "is_query_report": 0,
   "label": "Website Settings",
   "link_count": 0,
   "link_to": "Website Settings",
   "link_type": "DocType",
   "onboard": 0,
   "type": "Link"
  },
  {
   "columns": 0,
   "hidden": 0,
   "is_query_report": 0,
   "label": "Portal Settings",
   "link_count": 0,
   "link_to": "Portal Settings",
   "link_type": "DocType",
   "onboard": 0,
   "type": "Link"
  },
  {
   "columns": 0,
   "hidden": 0,
   "is_query_report": 0,
   "label": "Website Theme",
   "link_count": 0,
   "link_to": "Website Theme",
   "link_type": "DocType",
   "onboard": 0,
   "type": "Link"
  }
 ],
 "modified": "2023-08-19 00:05:04.598335",
 "modified_by": "Administrator",
 "module": "ToobibPro Website",
 "name": "ToobibPro Website",
 "number_cards": [],
 "owner": "Administrator",
 "parent_page": "",
 "public": 1,
 "quick_lists": [],
 "roles": [],
 "sequence_id": 5.0,
 "shortcuts": [],
 "title": "ToobibPro Website"
}
