{
 "align_labels_right": 0,
 "creation": "2017-05-05 18:59:01.500095",
 "css": ".col-xs-4, .col-xs-6, .col-xs-8, .col-xs-12 {\n\tpadding-top: 15px;\n}\n\ntable, tr, td, th, tbody, thead, tfoot, .col-xs-4, .col-xs-6, .col-xs-8, .col-xs-12, section {\n\tpage-break-inside: avoid !important;\n}\n\nh1, h2, h3, h4, h5, h6, p {\n\tcolor: #434d56 !important;\n}\n\nlabel, div {\n\tcolor: #4f5a64 !important;\n}\n\n.print-heading {\n\tmargin: 0.4in !important;\n\ttext-align: left;\n\ttext-transform: uppercase;\n\tpadding-bottom: 20px;\n\tmargin-bottom: 20px;\n\tborder-bottom: 1px solid #d1d8dd;\n}\n\n.print-format {\n\tpadding: 0;\n\tborder-radius: 5px;\n\tmargin: auto;\n\tposition: relative;\n}\n  \n.print-format th {\n\tbackground-color: #fff !important;\n}\n  \n.header-html {\n\tpadding: 0.4in;\n\tbackground: #f5fafc !important;\n\tborder-radius: 5px 5px 0 0;\n\twidth: 100%;\n}\n  \n.body-html {\n\tpadding: 0 0.8in 0.8in 0.8in;\n}\n  \n.table > tbody + tbody {\n\tborder-top: 1px solid #d1d8dd;\n}\n  \n.table > tbody > tr > th {\n\tborder-bottom: 1px solid #d1d8dd !important;\n}\n  \n.table > tbody > tr > td {\n\tborder-bottom: 1px solid #d1d8dd;\n}\n\n.vertical-table > tbody > tr > th {\n\tborder-right: 1px solid #d1d8dd !important;\n\twidth: 100px;\n}\n  \n@media print {\n\th1, h2, h3, h4, h5, h6, p, th, td, strong, a, b, ul, li {\n\t\tcolor: #434d56 !important;\n\t}\n\t.print-format {\n\t    padding: 0 25px;\n\t}\n\t.print-heading {\n\t\tmargin-top: 25mm;\n\t    margin-bottom: 25mm;\n\t\tcolor: #657381 !important;\n\t}\n\t.header-html {\n\t\tbackground: #f5fafc !important;\n\t}\n\t.body-html {\n\t\tpadding: 0 0.4in 0.4in 0.4in !important;\n\t}\n\t.letter-head-footer {\n\t\tpadding-top: 20px;\n\t}\n\ta[href]:after {\n\t\tcontent: none;\n\t}\n}",
 "custom_format": 1,
 "disabled": 0,
 "doc_type": "Gynecology",
 "docstatus": 0,
 "doctype": "Print Format",
 "font": "Default",
 "html": "{% include \"templates/includes/folder_header.html\" %}\n\n<div class=\"body-html\">\n\t<section>\n\t\t{% if doc.regular_cycles or doc.premenstrual_syndrome or doc.dysmenorrhea or doc.menometrorrhagia or doc.pelvic_pain\n\t\tor doc.mastodynia or doc.dyspareunia or doc.hirsutism or doc.mycosis or doc.urinary_leakage or doc.vaccination %}\n\t\t<div>\n\t\t\t<h4>{{ _(\"Gynecological Background\") }}</h4>\n\t\t</div>\n\t\t<div class=\"row data-field\">\n\t\t\t{% if doc.regular_cycles %}\n\t\t\t<div class=\"col-xs-4\">\n\t\t\t\t<label>{{ _(\"Regular Cycles\") }}</label> {{ doc.regular_cycles }}</div>\n\t\t\t{% endif %}\n\t\t\t{% if doc.premenstrual_syndrome %}\n\t\t\t<div class=\"col-xs-4\">\n\t\t\t\t<label>{{ _(\"Premenstrual Syndrome\") }}</label> {{ doc.premenstrual_syndrome_details }}</div>\n\t\t\t{% endif %}\n\t\t\t{% if doc.dysmenorrhea %}\n\t\t\t<div class=\"col-xs-4\">\n\t\t\t\t<label>{{ _(\"Dysmenorrhea\") }}</label> {{ doc.dysmenorrhea_details }}</div>\n\t\t\t{% endif %}\n\t\t\t{% if doc.menometrorrhagia %}\n\t\t\t<div class=\"col-xs-4\">\n\t\t\t\t<label>{{ _(\"Menometrorrhagia\") }}</label> {{ doc.menometrorrhagia_details }}</div>\n\t\t\t{% endif %}\n\t\t\t{% if doc.pelvic_pain %}\n\t\t\t<div class=\"col-xs-4\">\n\t\t\t\t<label>{{ _(\"Pelvic Pain\") }}</label> {{ doc.pelvic_pain_details }}</div>\n\t\t\t{% endif %}\n\t\t\t{% if doc.mastodynia %}\n\t\t\t<div class=\"col-xs-4\">\n\t\t\t\t<label>{{ _(\"Mastodynia\") }}</label> {{ doc.mastodynia_details }}</div>\n\t\t\t{% endif %}\n\t\t\t{% if doc.dyspareunia %}\n\t\t\t<div class=\"col-xs-4\">\n\t\t\t\t<label>{{ _(\"Dyspareunia\") }}</label> {{ doc.dyspareunia_details }}</div>\n\t\t\t{% endif %}\n\t\t\t{% if doc.hirsutism %}\n\t\t\t<div class=\"col-xs-4\">\n\t\t\t\t<label>{{ _(\"Hirsutism\") }}</label> {{ doc.hirsutism_details }}</div>\n\t\t\t{% endif %}\n\t\t\t{% if doc.mycosis %}\n\t\t\t<div class=\"col-xs-4\">\n\t\t\t\t<label>{{ _(\"Mycosis\") }}</label> {{ doc.mycosis_details }}</div>\n\t\t\t{% endif %}\n\t\t\t{% if doc.urinary_leakage %}\n\t\t\t<div class=\"col-xs-4\">\n\t\t\t\t<label>{{ _(\"Urinary Leakage\") }}</label> {{ doc.urinary_leakage_details }}</div>\n\t\t\t{% endif %}\n\t\t\t{% if doc.vaccination %}\n\t\t\t<div class=\"col-xs-6\">\n\t\t\t\t<label>{{ _(\"Vaccination\") }}</label> {{ doc.get_formatted(\"vaccination\") }}</div>\n\t\t\t{% endif %}\n\t\t</div>\n\t\t{% endif %}\n\t</section>\n\t<section>\n\t\t{% if doc.before_delivery_bearing_down==1 or doc.urinary_stress_incontinence==1 or doc.weight_gain!=0 %}\n\t\t<div class=\"row data-field\">\n\t\t\t{% if doc.age_of_first_sexual_intercourse %}\n\t\t\t<div class=\"col-xs-4\">\n\t\t\t\t<label>{{ _(\"Age of First Sexual Intercourse\") }}</label> {{ doc.age_of_first_sexual_intercourse }}</div>\n\t\t\t{% endif %} {% if doc.current_partner %}\n\t\t\t<div class=\"col-xs-4\">\n\t\t\t\t<label>{{ _(\"Current Partner\") }}</label>{{ doc.current_partner }}</div>\n\t\t\t{% endif %} {% if doc.contraception %}\n\t\t\t<div class=\"col-xs-4\">\n\t\t\t\t<label>{{ _(\"Current Contraception\") }}</label>{{ doc.contraception }}</div>\n\t\t\t{% endif %} {% if doc.contraception_history %}\n\t\t\t<div class=\"col-xs-6\">\n\t\t\t\t<label>{{ _(\"Contraception History\") }}</label>{{ doc.get_formatted(\"contraception_history\") }}</div>\n\t\t\t{% endif %}\n\t\t</div>\n\t\t<br>\n\t\t{% endif %}\n\t</section>\n\t<section>\n\t\t{% set patient_record = frappe.get_doc(\"Patient Record\", doc.patient_record) %}\n\t\t{% if patient_record.cervical_smear_table|length != 0 %}\n\t\t<div class=\"row\">\n\t\t\t<div class=\"col-xs-12\">\n\t\t\t\t<div>\n\t\t\t\t\t<h4>{{ _(\"Cervical Smear\") }}</h4>\n\t\t\t\t</div>\n\t\t\t\t<table class=\"table table-condensed\">\n\t\t\t\t\t<tr>\n\t\t\t\t\t\t<th>{{ _(\"Date\") }}</th>\n\t\t\t\t\t\t<th>{{ _(\"Result\") }}</th>\n\t\t\t\t\t</tr>\n\t\t\t\t\t<tbody>\n\t\t\t\t\t\t{%- for row in patient_record.cervical_smear_table -%}\n\t\t\t\t\t\t<tr>\n\t\t\t\t\t\t\t<td style=\"width: 100px;\">{{ row.date }}</td>\n\t\t\t\t\t\t\t<td style=\"width: 400px;\">{{ row.result }}</td>\n\t\t\t\t\t\t</tr>\n\t\t\t\t\t\t{% endfor %}\n\t\t\t\t\t</tbody>\n\t\t\t\t</table>\n\t\t\t</div>\n\t\t</div>\n\t\t<br>\n\t\t{% endif %}\n\t</section>\n\t<section>\n\t\t{% if doc.labs_results|length != 0 %}\n\t\t<div class=\"row\">\n\t\t\t<div class=\"col-xs-12\">\n\t\t\t\t<div>\n\t\t\t\t\t<h4>{{ _(\"Exam Results\") }}</h4>\n\t\t\t\t</div>\n\t\t\t\t<table class=\"table table-condensed\">\n\t\t\t\t\t<tr>\n\t\t\t\t\t\t<th>{{ _(\"Date\") }}</th>\n\t\t\t\t\t\t<th>{{ _(\"Exam Type\") }}</th>\n\t\t\t\t\t\t<th> {{ _(\"Exam Result\") }}</th>\n\t\t\t\t\t</tr>\n\t\t\t\t\t<tbody>\n\t\t\t\t\t\t{%- for row in doc.labs_results -%}\n\t\t\t\t\t\t<tr>\n\t\t\t\t\t\t\t<td style=\"width: 50px;\">{{ row.get_formatted(\"date\") }}</td>\n\t\t\t\t\t\t\t<td style=\"width: 200px;\">{{ _(row.exam_type) }}</td>\n\t\t\t\t\t\t\t<td style=\"width: 200px;\">{{ row.exam_result }}</td>\n\t\t\t\t\t\t</tr>\n\t\t\t\t\t\t{% endfor %}\n\t\t\t\t\t</tbody>\n\t\t\t\t</table>\n\t\t\t</div>\n\t\t</div>\n\t\t<br>\n\t\t{% endif %}\n\t</section>\n\t<section>\n\t\t{% if doc.screening_tests|length != 0 %}\n\t\t<div class=\"row\">\n\t\t\t<div class=\"col-xs-12\">\n\t\t\t\t<div>\n\t\t\t\t\t<h4>{{ _(\"Screening Tests\") }}</h4>\n\t\t\t\t</div>\n\t\t\t\t<table class=\"table table-condensed\">\n\t\t\t\t\t<tr>\n\t\t\t\t\t\t<th>{{ _(\"Date\") }}</th>\n\t\t\t\t\t\t<th>{{ _(\"TPHA-VRDL\") }}</th>\n\t\t\t\t\t\t<th>{{ _(\"HIV\") }}</th>\n\t\t\t\t\t\t<th>{{ _(\"Hepatitis C\") }}</th>\n\t\t\t\t\t\t<th>{{ _(\"Hepatitis B - Antigen\") }}</th>\n\t\t\t\t\t\t<th>{{ _(\"Hepatitis B - Antibodies\") }}</th>\n\t\t\t\t\t\t<th>{{ _(\"Chlamydia\") }}</th>\n\t\t\t\t\t\t<th>{{ _(\"Remarks\") }}</th>\n\t\t\t\t\t</tr>\n\t\t\t\t\t<tbody>\n\t\t\t\t\t\t{%- for row in doc.screening_tests -%}\n\t\t\t\t\t\t<tr>\n\t\t\t\t\t\t\t<td style=\"width: 50px;\">{{ row.date }}</td>\n\t\t\t\t\t\t\t<td style=\"width: 75px;\">{{ row.tpha_vrdl }}</td>\n\t\t\t\t\t\t\t<td style=\"width: 75px;\">{{ row.hiv }}</td>\n\t\t\t\t\t\t\t<td style=\"width: 75px;\">{{ row.hepatitis_c }}</td>\n\t\t\t\t\t\t\t<td style=\"width: 75px;\">{{ row.hepatitis_b_antigen }}</td>\n\t\t\t\t\t\t\t<td style=\"width: 75px;\">{{ row.hepatitis_b_antibodies }}</td>\n\t\t\t\t\t\t\t<td style=\"width: 75px;\">{{ row.chlamydia }}</td>\n\t\t\t\t\t\t\t<td style=\"width: 75px;\">{{ row.remarks }}</td>\n\t\t\t\t\t\t</tr>\n\t\t\t\t\t\t{% endfor %}\n\t\t\t\t\t</tbody>\n\t\t\t\t</table>\n\t\t\t</div>\n\t\t</div>\n\t\t<br>\n\t\t{% endif %}\n\t</section>\n\t<section>\n\t\t{% if doc.lipid_profile|length != 0 %}\n\t\t<div class=\"row\">\n\t\t\t<div class=\"col-xs-12\">\n\t\t\t\t<div>\n\t\t\t\t\t<h4>{{ _(\"Lipid Profile\") }}</h4>\n\t\t\t\t</div>\n\t\t\t\t<table class=\"table table-condensed\">\n\t\t\t\t\t<tr>\n\t\t\t\t\t\t<th>{{ _(\"Date\") }}</th>\n\t\t\t\t\t\t<th>{{ _(\"Total Cholesterol\") }}</th>\n\t\t\t\t\t\t<th>{{ _(\"HDL\") }}</th>\n\t\t\t\t\t\t<th>{{ _(\"LDL\") }}</th>\n\t\t\t\t\t\t<th>{{ _(\"TGL\") }}</th>\n\t\t\t\t\t\t<th>{{ _(\"Fasting Blood Glucose\") }}</th>\n\t\t\t\t\t\t<th>{{ _(\"Remarks\") }}</th>\n\t\t\t\t\t</tr>\n\t\t\t\t\t<tbody>\n\t\t\t\t\t\t{%- for row in doc.lipid_profile -%}\n\t\t\t\t\t\t<tr>\n\t\t\t\t\t\t\t<td style=\"width: 50px;\">{{ row.date }}</td>\n\t\t\t\t\t\t\t<td style=\"width: 75px;\">{{ row.total_cholesterol }}</td>\n\t\t\t\t\t\t\t<td style=\"width: 75px;\">{{ row.hdl }}</td>\n\t\t\t\t\t\t\t<td style=\"width: 75px;\">{{ row.ldl }}</td>\n\t\t\t\t\t\t\t<td style=\"width: 75px;\">{{ row.tgl }}</td>\n\t\t\t\t\t\t\t<td style=\"width: 75px;\">{{ row.fasting_blood_glucose }}</td>\n\t\t\t\t\t\t\t<td style=\"width: 75px;\">{{ row.remarks }}</td>\n\t\t\t\t\t\t</tr>\n\t\t\t\t\t\t{% endfor %}\n\t\t\t\t\t</tbody>\n\t\t\t\t</table>\n\t\t\t</div>\n\t\t</div>\n\t\t<br>\n\t\t{% endif %}\n\t</section>\n\n\t<div id=\"footer-html\" class=\"visible-pdf\">\n\t\t{% if not no_letterhead and footer %}\n\t\t<div class=\"letter-head-footer\">\n\t\t\t{{ footer }}\n\t\t</div>\n\t\t{% endif %}\n\t\t<p class=\"text-center small page-number visible-pdf\">\n\t\t\t{{ _(\"Page {0} of {1}\").format('<span class=\"page\"></span>', '<span class=\"topage\"></span>') }}\n\t\t</p>\n\t</div>\n</div>\n\n\n\n",
 "idx": 0,
 "line_breaks": 0,
 "modified": "2023-08-17 11:53:41.793388",
 "modified_by": "Administrator",
 "module": "Patients",
 "name": "Gynecology Folder",
 "owner": "Administrator",
 "print_format_builder": 0,
 "print_format_type": "Jinja",
 "show_section_headings": 0,
 "standard": "Yes"
}
