{
 "aggregate_function_based_on": "",
 "color": "#5EC13A",
 "creation": "2023-05-12 14:37:21.254617",
 "docstatus": 0,
 "doctype": "Number Card",
 "document_type": "Appointment",
 "dynamic_filters_json": "[]",
 "filters_json": "[[\"Appointment\",\"start_dt\",\"Timespan\",\"this week\",false]]",
 "function": "Count",
 "idx": 0,
 "is_public": 1,
 "is_standard": 1,
 "label": "Appointments",
 "modified": "2023-08-06 20:54:05.789184",
 "modified_by": "Administrator",
 "module": "Appointments",
 "name": "Appointments",
 "owner": "Administrator",
 "parent_document_type": "",
 "report_function": "Sum",
 "show_percentage_stats": 1,
 "stats_time_interval": "Weekly",
 "type": "Document Type"
}
