{
 "actions": [],
 "creation": "2018-04-10 16:24:02.126080",
 "doctype": "DocType",
 "editable_grid": 1,
 "engine": "InnoDB",
 "field_order": [
  "drug",
  "posology",
  "pharmaceutical_form",
  "treatment_duration",
  "additional_notes"
 ],
 "fields": [
  {
   "fieldname": "drug",
   "fieldtype": "Link",
   "in_list_view": 1,
   "in_standard_filter": 1,
   "label": "Drug",
   "options": "Drug"
  },
  {
   "fieldname": "posology",
   "fieldtype": "Data",
   "in_list_view": 1,
   "in_standard_filter": 1,
   "label": "Posology"
  },
  {
   "fieldname": "pharmaceutical_form",
   "fieldtype": "Data",
   "in_list_view": 1,
   "in_standard_filter": 1,
   "label": "Pharmaceutical Form"
  },
  {
   "fieldname": "treatment_duration",
   "fieldtype": "Small Text",
   "in_list_view": 1,
   "label": "Treatment Duration"
  },
  {
   "fieldname": "additional_notes",
   "fieldtype": "Small Text",
   "label": "Additional Notes"
  }
 ],
 "istable": 1,
 "links": [],
 "modified": "2023-09-12 12:13:03.954332",
 "modified_by": "Administrator",
 "module": "Patients",
 "name": "Drug List Model",
 "owner": "Administrator",
 "permissions": [],
 "quick_entry": 1,
 "sort_field": "modified",
 "sort_order": "DESC",
 "states": [],
 "track_changes": 1
}