{
 "align_labels_right": 0,
 "creation": "2017-04-21 10:42:35.020035",
 "css": ".col-xs-4, .col-xs-6, .col-xs-8, .col-xs-12 {\n\tpadding-top: 15px;\n}\n\ntable, tr, td, th, tbody, thead, tfoot, .col-xs-4, .col-xs-6, .col-xs-8, .col-xs-12, section {\n\tpage-break-inside: avoid !important;\n}\n\nh1, h2, h3, h4, h5, h6, p {\n\tcolor: #434d56 !important;\n}\n\nlabel, div {\n\tcolor: #4f5a64 !important;\n}\n\n.print-heading {\n\tmargin: 0.4in !important;\n\ttext-align: left;\n\ttext-transform: uppercase;\n\tpadding-bottom: 20px;\n\tmargin-bottom: 20px;\n\tborder-bottom: 1px solid #d1d8dd;\n}\n\n.print-format {\n\tpadding: 0;\n\tborder-radius: 5px;\n\tmargin: auto;\n\tposition: relative;\n}\n  \n.print-format th {\n\tbackground-color: #fff !important;\n}\n  \n.header-html {\n\tpadding: 0.4in;\n\tbackground: #f5fafc !important;\n\tborder-radius: 5px 5px 0 0;\n\twidth: 100%;\n}\n  \n.body-html {\n\tpadding: 0 0.8in 0.8in 0.8in;\n}\n  \n.table > tbody + tbody {\n\tborder-top: 1px solid #d1d8dd;\n}\n  \n.table > tbody > tr > th {\n\tborder-bottom: 1px solid #d1d8dd !important;\n}\n  \n.table > tbody > tr > td {\n\tborder-bottom: 1px solid #d1d8dd;\n}\n\n.vertical-table > tbody > tr > th {\n\tborder-right: 1px solid #d1d8dd !important;\n\twidth: 100px;\n}\n  \n@media print {\n\th1, h2, h3, h4, h5, h6, p, th, td, strong, a, b, ul, li {\n\t\tcolor: #434d56 !important;\n\t}\n\t.print-format {\n\t    padding: 0 25px;\n\t}\n\t.print-heading {\n\t\tmargin-top: 25mm;\n\t    margin-bottom: 25mm;\n\t\tcolor: #657381 !important;\n\t}\n\t.header-html {\n\t\tbackground: #f5fafc !important;\n\t}\n\t.body-html {\n\t\tpadding: 0 0.4in 0.4in 0.4in !important;\n\t}\n\t.letter-head-footer {\n\t\tpadding-top: 20px;\n\t}\n\ta[href]:after {\n\t\tcontent: none;\n\t}\n}",
 "custom_format": 1,
 "disabled": 0,
 "doc_type": "Patient Record",
 "docstatus": 0,
 "doctype": "Print Format",
 "font": "Default",
 "html": "{% include \"templates/includes/patient_folder_header.html\" %}\n\n<div class=\"body-html\">\n\t<section>\n\t\t{% if doc.patient_birth_name or doc.patient_date_of_birth or doc.patient_age or doc.address_html or doc.profession or\n\t\tdoc.current_activity_status or doc.commuting_time %}\n\t\t<div class=\"row data-field\">\n\t\t\t{% if doc.salutation or doc.patient_birth_name %}\n\t\t\t<div class=\"col-xs-12\">\n\t\t\t\t<label>{{ _(\"Title and Birth Name\") }}</label>\n\t\t\t\t<p>{{ _(doc.salutation) }} {{ doc.patient_birth_name or '' }}</p>\n\t\t\t</div>\n\t\t\t{% endif %}\n\t\t\t{% if doc.origin %}\n\t\t\t<div class=\"col-xs-12\">\n\t\t\t\t<label>{{ _(\"Origin\") }}</label>\n\t\t\t\t<p>{{ doc.origin }}</p>\n\t\t\t</div>\n\t\t\t{% endif %}\n\t\t\t{% if doc.patient_date_of_birth %}\n\t\t\t<div class=\"col-xs-4\">\n\t\t\t\t<label>{{ _(\"Date of Birth\") }}</label>\n\t\t\t\t<p>{{ doc.get_formatted(\"patient_date_of_birth\") }}</p>\n\t\t\t</div>\n\t\t\t{% endif %}\n\t\t\t{% if doc.patient_age %}\n\t\t\t<div class=\"col-xs-4\">\n\t\t\t\t<label>{{ _(\"Age\") }}</label>\n\t\t\t\t<p>{{ doc.patient_age }}</p>\n\t\t\t</div>\n\t\t\t{% endif %}\n\t\t\t{% if doc.social_security_number %}\n\t\t\t<div class=\"col-xs-4\">\n\t\t\t\t<label>{{ _(\"Social Security Number\") }}</label>\n\t\t\t\t<p>{{ doc.social_security_number }}</p>\n\t\t\t</div>\n\t\t\t{% endif %}\n\t\t\t{% if doc.address_html %}\n\t\t\t<div class=\"col-xs-4\">\n\t\t\t\t<label>{{ _(\"Adress\") }}</label>\n\t\t\t\t<p>{{ doc.address_html }}</p>\n\t\t\t</div>\n\t\t\t{% endif %}\n\t\t\t{% if doc.profession %}\n\t\t\t<div class=\"col-xs-4\">\n\t\t\t\t<label>{{ _(\"Profession\") }}</label>\n\t\t\t\t<p>{{ doc.profession }}</p>\n\t\t\t</div>\n\t\t\t{% endif %}\n\t\t\t{% if doc.current_activity_status %}\n\t\t\t<div class=\"col-xs-4\">\n\t\t\t\t<label>{{ _(\"Current Activity Status\") }}</label>\n\t\t\t\t<p>{{ doc.current_activity_status }}</p>\n\t\t\t</div>\n\t\t\t{% endif %}\n\t\t\t{% if doc.commuting_time %}\n\t\t\t<div class=\"col-xs-4\">\n\t\t\t\t<label>{{ _(\"Commuting Time in Mins\") }}</label>\n\t\t\t\t<p>{{ doc.commuting_time }}</p>\n\t\t\t</div>\n\t\t\t{% endif %}\n\t\t</div>\n\t\t<br>\n\t\t{% endif %}\n\t</section>\n\t<section>\n\t\t{% if doc.correspondents|length != 0 %}\n\t\t<div class=\"row\">\n\t\t\t<div class=\"col-xs-12\">\n\t\t\t\t<div>\n\t\t\t\t\t<h4>{{ _(\"Correspondents\") }}</h4>\n\t\t\t\t</div>\n\t\t\t\t<table class=\"table table-condensed\">\n\t\t\t\t\t<tr>\n\t\t\t\t\t\t<th>{{ _(\"Correspondent\") }}</th>\n\t\t\t\t\t\t<th>{{ _(\"Name\") }}</th>\n\t\t\t\t\t\t<th> {{ _(\"Location\") }}</th>\n\t\t\t\t\t</tr>\n\t\t\t\t\t<tbody>\n\t\t\t\t\t\t{%- for row in doc.correspondents -%}\n\t\t\t\t\t\t<tr>\n\t\t\t\t\t\t\t<td style=\"width: 100px;\">{{ row.correspondent }}</td>\n\t\t\t\t\t\t\t<td style=\"width: 200px;\">{{ row.name1 }}</td>\n\t\t\t\t\t\t\t<td style=\"width: 200px;\">{{ row.location }}</td>\n\t\t\t\t\t\t</tr>\n\t\t\t\t\t\t{% endfor %}\n\t\t\t\t\t</tbody>\n\t\t\t\t</table>\n\t\t\t</div>\n\t\t</div>\n\t\t<br>\n\t\t{% endif %}\n\t</section>\n\t<section>\n\t\t{% if doc.blood_group or doc.valid_group_card or doc.urinary_infection_details or doc.high_blood_pressure_details or\n\t\tdoc.ophtalmology_details or doc.ophtalmology_details or doc.migraine_details or\n\t\tdoc.diabetes_cholesterol_cholestasis_details or doc.cerebrovascular_accident_aneurysm_phlebitis_details or\n\t\tdoc.myocardial_infarction_cardiopathy_details or doc.hormonal_dependent_cancer_details or doc.long_term_disease or\n\t\tdoc.allergies|length != 0 %}\n\t\t<div>\n\t\t\t<h4>{{ _(\"Medical Background\") }}</h4>\n\t\t</div>\n\t\t<div class=\"row data-field\">\n\t\t\t{% if doc.blood_group %}\n\t\t\t<div class=\"col-xs-4\">\n\t\t\t\t<label>{{ _(\"Blood Group\") }}</label>\n\t\t\t\t<p>{{ doc.blood_group }}</p>\n\t\t\t</div>\n\t\t\t{% endif %}\n\t\t\t{% if doc.valid_group_card %}\n\t\t\t<div class=\"col-xs-4\">\n\t\t\t\t<label>{{ _(\"Valid Group Card\") }}</label>\n\t\t\t</div>\n\t\t\t{% endif %}\n\t\t\t{% if doc.urinary_infection_details %}\n\t\t\t<div class=\"col-xs-4\">\n\t\t\t\t<label>{{ _(\"Urinary Infection\") }}</label>\n\t\t\t\t<p>{{ doc.urinary_infection_details }}</p>\n\t\t\t</div>\n\t\t\t{% endif %}\n\t\t\t{% if doc.high_blood_pressure_details %}\n\t\t\t<div class=\"col-xs-4\">\n\t\t\t\t<label>{{ _(\"High Blood Pressure\") }}</label>\n\t\t\t\t<p>{{ doc.high_blood_pressure_details }}</p>\n\t\t\t</div>\n\t\t\t{% endif %}\n\t\t\t{% if doc.ophtalmology_details %}\n\t\t\t<div class=\"col-xs-4\">\n\t\t\t\t<label>{{ _(\"Ophtalmology\") }}</label>\n\t\t\t\t<p>{{ doc.ophtalmology_details }}</p>\n\t\t\t</div>\n\t\t\t{% endif %}\n\t\t\t{% if doc.migraine_details %}\n\t\t\t<div class=\"col-xs-4\">\n\t\t\t\t<label>{{ _(\"Migraine\") }}</label>\n\t\t\t\t<p>{{ doc.migraine_details }}</p>\n\t\t\t</div>\n\t\t\t{% endif %}\n\t\t\t{% if doc.diabetes_cholesterol_cholestasis_details %}\n\t\t\t<div class=\"col-xs-4\">\n\t\t\t\t<label>{{ _(\"Diabetes, Cholesterol, Cholestasis\") }}</label>\n\t\t\t\t<p>{{ doc.diabetes_cholesterol_cholestasis_details }}</p>\n\t\t\t</div>\n\t\t\t{% endif %}\n\t\t\t{% if doc.cerebrovascular_accident_aneurysm_phlebitis_details %}\n\t\t\t<div class=\"col-xs-4\">\n\t\t\t\t<label>{{ _(\"Cerebrovascular Accident, Aneurysm, Phlebitis, Varicose Veins\") }}</label>\n\t\t\t\t<p>{{ doc.cerebrovascular_accident_aneurysm_phlebitis_details }}</p>\n\t\t\t</div>\n\t\t\t{% endif %}\n\t\t\t{% if doc.myocardial_infarction_cardiopathy_details %}\n\t\t\t<div class=\"col-xs-4\">\n\t\t\t\t<label>{{ _(\"Myocardial Infarction, Cardiopathy\") }}</label>\n\t\t\t\t<p>{{ doc.myocardial_infarction_cardiopathy_details }}</p>\n\t\t\t</div>\n\t\t\t{% endif %}\n\t\t\t{% if doc.hormonal_dependent_cancer_details %}\n\t\t\t<div class=\"col-xs-4\">\n\t\t\t\t<label>{{ _(\"Hormonal Dependent Cancer\") }}</label>\n\t\t\t\t<p>{{ doc.hormonal_dependent_cancer_details }}</p>\n\t\t\t</div>\n\t\t\t{% endif %}\n\t\t\t{% if doc.long_term_disease %}\n\t\t\t<div class=\"col-xs-12\">\n\t\t\t\t<label>{{ _(\"Long Term Disease, Hospitalisation Or Treatment\") }}</label>\n\t\t\t\t<p>{{ doc.get_formatted(\"long_term_disease\") }}</p>\n\t\t\t</div>\n\t\t\t{% endif %}\n\t\t\t{% if doc.allergies|length != 0 %}\n\t\t\t<div class=\"col-xs-8\">\n\t\t\t\t<table class=\"table table-condensed\">\n\t\t\t\t\t<tr>\n\t\t\t\t\t\t<th>{{ _(\"Allergies\") }}</th>\n\t\t\t\t\t\t<th>{{ _(\"Manifestation\") }}</th>\n\t\t\t\t\t</tr>\n\t\t\t\t\t<tbody>\n\t\t\t\t\t\t{%- for row in doc.allergies -%}\n\t\t\t\t\t\t<tr>\n\t\t\t\t\t\t\t<td style=\"width: 100px;\">{{ row.patient_allergies or '' }}</td>\n\t\t\t\t\t\t\t<td style=\"width: 200px;\">{{ row.manifestation or '' }}</td>\n\t\t\t\t\t\t</tr>\n\t\t\t\t\t\t{% endfor %}\n\t\t\t\t\t</tbody>\n\t\t\t\t</table>\n\t\t\t</div>\n\t\t\t<br>\n\t\t\t{% endif %}\n\t\t</div>\n\t\t{% endif %}\n\t</section>\n\t<section>\n\t\t{% if doc.patient_addictions|length != 0 %}\n\t\t<div class=\"row\">\n\t\t\t<div class=\"col-xs-12\">\n\t\t\t\t<div>\n\t\t\t\t\t<h4>{{ _(\"Addictions\") }}</h4>\n\t\t\t\t</div>\n\t\t\t\t<table class=\"table table-condensed\">\n\t\t\t\t\t<tr>\n\t\t\t\t\t\t<th>{{ _(\"Patient Addictions\") }}</th>\n\t\t\t\t\t\t<th>{{ _(\"Consumption\") }}</th>\n\t\t\t\t\t\t<th> {{ _(\"Remarks\") }}</th>\n\t\t\t\t\t</tr>\n\t\t\t\t\t<tbody>\n\t\t\t\t\t\t{%- for row in doc.patient_addictions -%}\n\t\t\t\t\t\t<tr>\n\t\t\t\t\t\t\t<td style=\"width: 100px;\">{{ row.patient_addictions or '' }}</td>\n\t\t\t\t\t\t\t<td style=\"width: 200px;\">{{ row.consumption or '' }}</td>\n\t\t\t\t\t\t\t<td style=\"width: 200px;\">{{ row.remarks or '' }}</td>\n\t\t\t\t\t\t</tr>\n\t\t\t\t\t\t{% endfor %}\n\t\t\t\t\t</tbody>\n\t\t\t\t</table>\n\t\t\t</div>\n\t\t</div>\n\t\t<br>\n\t\t{% endif %}\n\t</section>\n\t<section>\n\t\t{% if doc.surgical_interventions|length != 0 %}\n\t\t<div class=\"row\">\n\t\t\t<div class=\"col-xs-12\">\n\t\t\t\t<div>\n\t\t\t\t\t<h4>{{ _(\"Surgical Background\") }}</h4>\n\t\t\t\t</div>\n\t\t\t\t<table class=\"table table-condensed\">\n\t\t\t\t\t<tr>\n\t\t\t\t\t\t<th>{{ _(\"Date\") }}</th>\n\t\t\t\t\t\t<th>{{ _(\"Surgical Intervention\") }}</th>\n\t\t\t\t\t\t<th> {{ _(\"Anesthesia Type\") }}</th>\n\t\t\t\t\t\t<th> {{ _(\"Comments\") }}</th>\n\t\t\t\t\t</tr>\n\t\t\t\t\t<tbody>\n\t\t\t\t\t\t{%- for row in doc.surgical_interventions -%}\n\t\t\t\t\t\t<tr>\n\t\t\t\t\t\t\t<td style=\"width: 20px;\">{{ row.intervention_date or '' }}</td>\n\t\t\t\t\t\t\t<td style=\"width: 200px;\">{{ row.surgical_intervention or '' }}</td>\n\t\t\t\t\t\t\t<td style=\"width: 200px;\">{{ row.anesthesia_type or '' }}</td>\n\t\t\t\t\t\t\t<td style=\"width: 200px;\">{{ row.comments or '' }}</td>\n\t\t\t\t\t\t</tr>\n\t\t\t\t\t\t{% endfor %}\n\t\t\t\t\t</tbody>\n\t\t\t\t</table>\n\t\t\t</div>\n\t\t</div>\n\t\t<br>\n\t\t{% endif %}\n\t</section>\n\t<section>\n\t\t{% if doc.first_menses or doc.regular_cycles or doc.contraception or doc.contraception_end_date or\n\t\tdoc.genital_herpes_details or doc.assistant_medical_procreation_details or doc.additional_comments %}\n\t\t<div>\n\t\t\t<h4>{{ _(\"Gynecological Background\") }}</h4>\n\t\t</div>\n\t\t<div class=\"row data-field\">\n\t\t\t{% if doc.first_menses %}\n\t\t\t<div class=\"col-xs-4\">\n\t\t\t\t<label>{{ _(\"First Menses (Year)\") }}</label>\n\t\t\t\t<p>{{ doc.first_menses }}</p>\n\t\t\t</div>\n\t\t\t{% endif %}\n\t\t\t{% if doc.regular_cycles %}\n\t\t\t<div class=\"col-xs-4\">\n\t\t\t\t<label>{{ _(\"Regular Cycles\") }}</label>\n\t\t\t\t<p>{{ doc.regular_cycles }}</p>\n\t\t\t</div>\n\t\t\t{% endif %}\n\t\t\t{% if doc.contraception %}\n\t\t\t<div class=\"col-xs-4\">\n\t\t\t\t<label>{{ _(\"Contraception\") }}</label>\n\t\t\t\t<p>{{ doc.contraception }}</p>\n\t\t\t</div>\n\t\t\t{% endif %}\n\t\t\t{% if doc.contraception_end_date %}\n\t\t\t<div class=\"col-xs-4\">\n\t\t\t\t<label>{{ _(\"Contraception End Date\") }}</label>\n\t\t\t\t<p>{{ doc.contraception_end_date }}</p>\n\t\t\t</div>\n\t\t\t{% endif %}\n\t\t\t{% if doc.genital_herpes_details %}\n\t\t\t<div class=\"col-xs-4\">\n\t\t\t\t<label>{{ _(\"Genital Herpes\") }}</label>\n\t\t\t\t<p>{{ doc.genital_herpes_details }}</p>\n\t\t\t</div>\n\t\t\t{% endif %}\n\t\t\t{% if doc.assistant_medical_procreation_details %}\n\t\t\t<div class=\"col-xs-8\">\n\t\t\t\t<label>{{ _(\"A.M.P\") }}</label>\n\t\t\t\t<p>{{ doc.assistant_medical_procreation_details }}</p>\n\t\t\t</div>\n\t\t\t{% endif %}\n\t\t\t{% if doc.additional_comments %}\n\t\t\t<div class=\"col-xs-8\">\n\t\t\t\t<label>{{ _(\"Additional Comments\") }}</label>\n\t\t\t\t<p>{{ doc.get_formatted(\"additional_comments\") }}</p>\n\t\t\t</div>\n\t\t\t{% endif %}\n\t\t</div>\n\t\t<br>\n\t\t{% endif %}\n\t</section>\n\t<section>\n\t\t{% if doc.cervical_smear_table|length != 0 %}\n\t\t<div class=\"row\">\n\t\t\t<div class=\"col-xs-12\">\n\t\t\t\t<div>\n\t\t\t\t\t<h4>{{ _(\"Cervical Smear\") }}</h4>\n\t\t\t\t</div>\n\t\t\t\t<table class=\"table table-condensed\">\n\t\t\t\t\t<tr>\n\t\t\t\t\t\t<th>{{ _(\"Date\") }}</th>\n\t\t\t\t\t\t<th>{{ _(\"Result\") }}</th>\n\t\t\t\t\t</tr>\n\t\t\t\t\t<tbody>\n\t\t\t\t\t\t{%- for row in doc.cervical_smear_table -%}\n\t\t\t\t\t\t<tr>\n\t\t\t\t\t\t\t<td style=\"width: 100px;\">{{ row.date }}</td>\n\t\t\t\t\t\t\t<td style=\"width: 400px;\">{{ row.result }}</td>\n\t\t\t\t\t\t</tr>\n\t\t\t\t\t\t{% endfor %}\n\t\t\t\t\t</tbody>\n\t\t\t\t</table>\n\t\t\t</div>\n\t\t</div>\n\t\t<br>\n\t\t{% endif %}\n\t</section>\n\t<section>\n\t\t{% if doc.parity or doc.gravidity or doc.obstetrical_backgounds|length != 0 %}\n\t\t<div>\n\t\t\t<h4>{{ _(\"Obstetrical Background\") }}</h4>\n\t\t</div>\n\t\t<div class=\"row data-field\">\n\t\t\t{% if doc.parity %}\n\t\t\t<div class=\"col-xs-4\">\n\t\t\t\t<label>{{ _(\"Parity\") }}</label>\n\t\t\t\t<p>{{ doc.parity }}</p>\n\t\t\t</div>\n\t\t\t{% endif %}\n\t\t\t{% if doc.gravidity %}\n\t\t\t<div class=\"col-xs-4\">\n\t\t\t\t<label>{{ _(\"Gravidity\") }}</label>\n\t\t\t\t<p>{{ doc.gravidity }}</p>\n\t\t\t</div>\n\t\t\t{% endif %}\n\t\t</div>\n\t\t{% if doc.obstetrical_backgounds|length != 0 %}\n\t\t<div class=\"row\">\n\t\t\t<div class=\"col-xs-12\">\n\t\t\t\t<table class=\"table table-condensed vertical-table\">\n\t\t\t\t\t<tbody>\n\t\t\t\t\t\t<tr>\n\t\t\t\t\t\t\t<th>{{ _(\"Date\") }}</th>\n\t\t\t\t\t\t\t{%- for row in doc.obstetrical_backgounds -%}\n\t\t\t\t\t\t\t<td>{{ row.get_formatted(\"date\") or '' }}</td>\n\t\t\t\t\t\t\t{% endfor %}\n\t\t\t\t\t\t</tr>\n\t\t\t\t\t\t<tr>\n\t\t\t\t\t\t\t<th>{{ _(\"Maternity\") }}</th>\n\t\t\t\t\t\t\t{%- for row in doc.obstetrical_backgounds -%}\n\t\t\t\t\t\t\t<td>{{ row.maternity or '' }}</td>\n\t\t\t\t\t\t\t{% endfor %}\n\t\t\t\t\t\t</tr>\n\t\t\t\t\t\t<tr>\n\t\t\t\t\t\t\t<th> {{ _(\"Term\") }}</th>\n\t\t\t\t\t\t\t{%- for row in doc.obstetrical_backgounds -%}\n\t\t\t\t\t\t\t<td>{{ row.term or '' }}</td>\n\t\t\t\t\t\t\t{% endfor %}\n\t\t\t\t\t\t</tr>\n\t\t\t\t\t\t<tr>\n\t\t\t\t\t\t\t<th> {{ _(\"Delivery Way\") }}</th>\n\t\t\t\t\t\t\t{%- for row in doc.obstetrical_backgounds -%}\n\t\t\t\t\t\t\t<td>{{ _(row.delivery_way) or '' }}</td>\n\t\t\t\t\t\t\t{% endfor %}\n\t\t\t\t\t\t</tr>\n\t\t\t\t\t\t<tr>\n\t\t\t\t\t\t\t<th> {{ _(\"Anesthesia\") }}</th>\n\t\t\t\t\t\t\t{%- for row in doc.obstetrical_backgounds -%}\n\t\t\t\t\t\t\t<td>{{ _(row.anesthesia) or '' }}</td>\n\t\t\t\t\t\t\t{% endfor %}\n\t\t\t\t\t\t</tr>\n\t\t\t\t\t\t<tr>\n\t\t\t\t\t\t\t<th> {{ _(\"Suture\") }}</th>\n\t\t\t\t\t\t\t{%- for row in doc.obstetrical_backgounds -%}\n\t\t\t\t\t\t\t<td>{{ _(row.suture) or '' }}</td>\n\t\t\t\t\t\t\t{% endfor %}\n\t\t\t\t\t\t</tr>\n\t\t\t\t\t\t<tr>\n\t\t\t\t\t\t\t<th> {{ _(\"Complications\") }}</th>\n\t\t\t\t\t\t\t{%- for row in doc.obstetrical_backgounds -%}\n\t\t\t\t\t\t\t<td>{{ row.complications or '' }}</td>\n\t\t\t\t\t\t\t{% endfor %}\n\t\t\t\t\t\t</tr>\n\t\t\t\t\t\t<tr>\n\t\t\t\t\t\t\t<th> {{ _(\"Child Full Name\") }}</th>\n\t\t\t\t\t\t\t{%- for row in doc.obstetrical_backgounds -%}\n\t\t\t\t\t\t\t<td class=\"newborn-1\">{{ _(row.child_full_name) or '' }}</td>\n\t\t\t\t\t\t\t{% endfor %}\n\t\t\t\t\t\t</tr>\n\t\t\t\t\t\t<tr>\n\t\t\t\t\t\t\t<th> {{ _(\"Gender\") }}</th>\n\t\t\t\t\t\t\t{%- for row in doc.obstetrical_backgounds -%}\n\t\t\t\t\t\t\t<td class=\"newborn-1\">{{ _(row.child_gender) or '' }}</td>\n\t\t\t\t\t\t\t{% endfor %}\n\t\t\t\t\t\t</tr>\n\t\t\t\t\t\t<tr>\n\t\t\t\t\t\t\t<th> {{ _(\"Weight\") }}</th>\n\t\t\t\t\t\t\t{%- for row in doc.obstetrical_backgounds -%}\n\t\t\t\t\t\t\t<td class=\"newborn-1\">{{ row.child_weight or '' }}</td>\n\t\t\t\t\t\t\t{% endfor %}\n\t\t\t\t\t\t</tr>\n\t\t\t\t\t\t<tr>\n\t\t\t\t\t\t\t<th> {{ _(\"Child Health State\") }}</th>\n\t\t\t\t\t\t\t{%- for row in doc.obstetrical_backgounds -%}\n\t\t\t\t\t\t\t<td class=\"newborn-1\">{{ _(row.child_health_state) or '' }}</td>\n\t\t\t\t\t\t\t{% endfor %}\n\t\t\t\t\t\t</tr>\n\t\t\t\t\t\t<tr>\n\t\t\t\t\t\t\t<th> {{ _(\"Feeding\") }}</th>\n\t\t\t\t\t\t\t{%- for row in doc.obstetrical_backgounds -%}\n\t\t\t\t\t\t\t<td class=\"newborn-1\">{{ _(row.feeding) }}</td>\n\t\t\t\t\t\t\t{% endfor %}\n\t\t\t\t\t\t</tr>\n\t\t\t\t\t\t{%- for row in doc.obstetrical_backgounds -%}\n\t\t\t\t\t\t{% if row.multiple_pregnancy %}\n\t\t\t\t\t\t{% if row.child_full_name_2 %}\n\t\t\t\t\t\t<tr>\n\t\t\t\t\t\t\t<th> {{ _(\"Child Full Name\") }}</th>\n\t\t\t\t\t\t\t{%- for row in doc.obstetrical_backgounds -%}\n\t\t\t\t\t\t\t<td class=\"newborn-2\">{{ _(row.child_full_name_2) or '' }}</td>\n\t\t\t\t\t\t\t{% endfor %}\n\t\t\t\t\t\t</tr>\n\t\t\t\t\t\t<tr>\n\t\t\t\t\t\t\t<th> {{ _(\"Gender\") }}</th>\n\t\t\t\t\t\t\t{%- for row in doc.obstetrical_backgounds -%}\n\t\t\t\t\t\t\t<td class=\"newborn-2\">{{ _(row.child_gender_2) or '' }}</td>\n\t\t\t\t\t\t\t{% endfor %}\n\t\t\t\t\t\t</tr>\n\t\t\t\t\t\t<tr>\n\t\t\t\t\t\t\t<th> {{ _(\"Weight\") }}</th>\n\t\t\t\t\t\t\t{%- for row in doc.obstetrical_backgounds -%}\n\t\t\t\t\t\t\t<td class=\"newborn-2\">{{ row.child_weight_2 or '' }}</td>\n\t\t\t\t\t\t\t{% endfor %}\n\t\t\t\t\t\t</tr>\n\t\t\t\t\t\t<tr>\n\t\t\t\t\t\t\t<th> {{ _(\"Child Health State\") }}</th>\n\t\t\t\t\t\t\t{%- for row in doc.obstetrical_backgounds -%}\n\t\t\t\t\t\t\t<td class=\"newborn-2\">{{ _(row.child_health_state_2) or '' }}</td>\n\t\t\t\t\t\t\t{% endfor %}\n\t\t\t\t\t\t</tr>\n\t\t\t\t\t\t<tr>\n\t\t\t\t\t\t\t<th> {{ _(\"Feeding\") }}</th>\n\t\t\t\t\t\t\t{%- for row in doc.obstetrical_backgounds -%}\n\t\t\t\t\t\t\t<td class=\"newborn-2\">{{ _(row.feeding_2) }}</td>\n\t\t\t\t\t\t\t{% endfor %}\n\t\t\t\t\t\t</tr>\n\t\t\t\t\t\t{% endif %}\n\t\t\t\t\t\t{% if row.child_full_name_3 %}\n\t\t\t\t\t\t<tr>\n\t\t\t\t\t\t\t<th> {{ _(\"Child Full Name\") }}</th>\n\t\t\t\t\t\t\t{%- for row in doc.obstetrical_backgounds -%}\n\t\t\t\t\t\t\t<td class=\"newborn-3\">{{ _(row.child_full_name_3) or '' }}</td>\n\t\t\t\t\t\t\t{% endfor %}\n\t\t\t\t\t\t</tr>\n\t\t\t\t\t\t<tr>\n\t\t\t\t\t\t\t<th> {{ _(\"Gender\") }}</th>\n\t\t\t\t\t\t\t{%- for row in doc.obstetrical_backgounds -%}\n\t\t\t\t\t\t\t<td class=\"newborn-3\">{{ _(row.child_gender_3) or '' }}</td>\n\t\t\t\t\t\t\t{% endfor %}\n\t\t\t\t\t\t</tr>\n\t\t\t\t\t\t<tr>\n\t\t\t\t\t\t\t<th> {{ _(\"Weight\") }}</th>\n\t\t\t\t\t\t\t{%- for row in doc.obstetrical_backgounds -%}\n\t\t\t\t\t\t\t<td class=\"newborn-3\">{{ row.child_weight_3 or '' }}</td>\n\t\t\t\t\t\t\t{% endfor %}\n\t\t\t\t\t\t</tr>\n\t\t\t\t\t\t<tr>\n\t\t\t\t\t\t\t<th> {{ _(\"Child Health State\") }}</th>\n\t\t\t\t\t\t\t{%- for row in doc.obstetrical_backgounds -%}\n\t\t\t\t\t\t\t<td class=\"newborn-3\">{{ _(row.child_health_state_3) or '' }}</td>\n\t\t\t\t\t\t\t{% endfor %}\n\t\t\t\t\t\t</tr>\n\t\t\t\t\t\t<tr>\n\t\t\t\t\t\t\t<th> {{ _(\"Feeding\") }}</th>\n\t\t\t\t\t\t\t{%- for row in doc.obstetrical_backgounds -%}\n\t\t\t\t\t\t\t<td class=\"newborn-3\">{{ _(row.feeding_3) }}</td>\n\t\t\t\t\t\t\t{% endfor %}\n\t\t\t\t\t\t</tr>\n\t\t\t\t\t\t{% endif %}\n\t\t\t\t\t\t{% endif %}\n\t\t\t\t\t\t{%- endfor -%}\n\t\t\t\t\t\t<tr>\n\t\t\t\t\t\t\t<th> {{ _(\"Mother Experience\") }}</th>\n\t\t\t\t\t\t\t{%- for row in doc.obstetrical_backgounds -%}\n\t\t\t\t\t\t\t<td>{{ _(row.mother_experience) or '' }}</td>\n\t\t\t\t\t\t\t{% endfor %}\n\t\t\t\t\t\t</tr>\n\t\t\t\t\t\t<tr>\n\t\t\t\t\t\t\t<th> {{ _(\"Perineum Rehabilitation\") }}</th>\n\t\t\t\t\t\t\t{%- for row in doc.obstetrical_backgounds -%}\n\t\t\t\t\t\t\t<td>{{ _(row.perineum_rehabilitation) or '' }}</td>\n\t\t\t\t\t\t\t{% endfor %}\n\t\t\t\t\t\t</tr>\n\t\t\t\t\t</tbody>\n\t\t\t\t</table>\n\t\t\t</div>\n\t\t</div>\n\t\t<br>\n\t\t{% endif %}\n\t\t{% endif %}\n\t</section>\n\t<section>\n\t\t{% if doc.psychatric_background_details %}\n\t\t<div class=\"row data-field\">\n\t\t\t<div class=\"col-xs-12\">\n\t\t\t\t<label>{{ _(\"Psychatric Background\") }}</label>\n\t\t\t\t<p>{{ doc.get_formatted(\"psychatric_background_details\") }}</p>\n\t\t\t</div>\n\t\t</div>\n\t\t{% endif %}\n\t\t{% if doc.violences %}\n\t\t<div class=\"row data-field\">\n\t\t\t<div class=\"col-xs-12\">\n\t\t\t\t<label>{{ _(\"Violences\") }}</label>\n\t\t\t\t<p>{{ doc.get_formatted(\"violences_details\") }}</p>\n\t\t\t</div>\n\t\t</div>\n\t\t{% endif %}\n\t</section>\n\t<section>\n\t\t{% if doc.height or doc.weight or doc.body_mass_index %}\n\t\t<div class=\"row data-field\">\n\t\t\t{% if doc.height %}\n\t\t\t<div class=\"col-xs-4\">\n\t\t\t\t<label>{{ _(\"Height (Meters)\") }}</label>\n\t\t\t\t<p>{{ doc.height }}</p>\n\t\t\t</div>\n\t\t\t{% endif %}\n\t\t\t{% if doc.weight %}\n\t\t\t<div class=\"col-xs-4\">\n\t\t\t\t<label>{{ _(\"Weight (Kg)\") }}</label>\n\t\t\t\t<p>{{ doc.weight }}</p>\n\t\t\t</div>\n\t\t\t{% endif %}\n\t\t\t{% if doc.body_mass_index %}\n\t\t\t<div class=\"col-xs-4\">\n\t\t\t\t<label>{{ _(\"Body Mass Index\") }}</label>\n\t\t\t\t<p>{{ doc.body_mass_index }}</p>\n\t\t\t</div>\n\t\t\t{% endif %}\n\t\t</div>\n\t\t<br>\n\t\t{% endif %}\n\t</section>\n\t<section>\n\t\t{% if doc.patient_sports|length != 0 %}\n\t\t<div class=\"row\">\n\t\t\t<div class=\"col-xs-12\">\n\t\t\t\t<div>\n\t\t\t\t\t<h4>{{ _(\"Sports\") }}</h4>\n\t\t\t\t</div>\n\t\t\t\t<table class=\"table table-condensed\">\n\t\t\t\t\t<tr>\n\t\t\t\t\t\t<th>{{ _(\"Sport\") }}</th>\n\t\t\t\t\t\t<th>{{ _(\"Note\") }}</th>\n\t\t\t\t\t</tr>\n\t\t\t\t\t<tbody>\n\t\t\t\t\t\t{%- for row in doc.patient_sports -%}\n\t\t\t\t\t\t<tr>\n\t\t\t\t\t\t\t<td style=\"width: 200px;\">{{ row.sport }}</td>\n\t\t\t\t\t\t\t<td style=\"width: 400px;\">{{ row.note }}</td>\n\t\t\t\t\t\t</tr>\n\t\t\t\t\t\t{% endfor %}\n\t\t\t\t\t</tbody>\n\t\t\t\t</table>\n\t\t\t</div>\n\t\t</div>\n\t\t<br>\n\t\t{% endif %}\n\t</section>\n\t<section>\n\t\t{% if doc.mother_background or doc.father_background %}\n\t\t<div>\n\t\t\t<h4>{{ _(\"Family Background\") }}</h4>\n\t\t</div>\n\t\t<div class=\"row data-field\">\n\t\t\t{% if doc.mother_background %}\n\t\t\t<div class=\"col-xs-4\">\n\t\t\t\t<label>{{ _(\"Mother\") }}</label>\n\t\t\t\t<p>{{ doc.get_formatted(\"mother_background\") }}</p>\n\t\t\t</div>\n\t\t\t{% endif %}\n\t\t\t{% if doc.father_background %}\n\t\t\t<div class=\"col-xs-4\">\n\t\t\t\t<label>{{ _(\"Father\") }}</label>\n\t\t\t\t<p>{{ doc.get_formatted(\"father_background\") }}</p>\n\t\t\t</div>\n\t\t\t{% endif %}\n\t\t</div>\n\t\t<br>\n\t\t{% endif %}\n\t</section>\n\t<section>\n\t\t{% if doc.spouse_name or doc.spouse_date_of_birth or doc.spouse_age or doc.telephone or doc.spouse_profession or\n\t\tdoc.family_situation_details or doc.antecedent_history or doc.spouse_addictions|length != 0 %}\n\t\t<div>\n\t\t\t<h4>{{ _(\"Spouse\") }}</h4>\n\t\t</div>\n\t\t<div class=\"row data-field\">\n\t\t\t{% if doc.spouse_name %}\n\t\t\t<div class=\"col-xs-4\">\n\t\t\t\t<label>{{ _(\"Full Name\") }}</label>\n\t\t\t\t<p>{{ doc.spouse_name }}</p>\n\t\t\t</div>\n\t\t\t{% endif %}\n\t\t\t{% if doc.spouse_date_of_birth %}\n\t\t\t<div class=\"col-xs-4\">\n\t\t\t\t<label>{{ _(\"Date of Birth\") }}</label>\n\t\t\t\t<p>{{ doc.get_formatted(\"spouse_date_of_birth\") }}</p>\n\t\t\t</div>\n\t\t\t{% endif %}\n\t\t\t{% if doc.spouse_age %}\n\t\t\t<div class=\"col-xs-4\">\n\t\t\t\t<label>{{ _(\"Age\") }}</label>\n\t\t\t\t<p>{{ doc.spouse_age }}</p>\n\t\t\t</div>\n\t\t\t{% endif %}\n\t\t\t{% if doc.telephone %}\n\t\t\t<div class=\"col-xs-4\">\n\t\t\t\t<label>{{ _(\"Telephone\") }}</label>\n\t\t\t\t<p>{{ doc.telephone }}</p>\n\t\t\t</div>\n\t\t\t{% endif %}\n\t\t\t{% if doc.spouse_profession %}\n\t\t\t<div class=\"col-xs-4\">\n\t\t\t\t<label>{{ _(\"Profession\") }}</label>\n\t\t\t\t<p>{{ doc.spouse_profession }}</p>\n\t\t\t</div>\n\t\t\t{% endif %}\n\t\t\t{% if doc.family_situation_details %}\n\t\t\t<div class=\"col-xs-4\">\n\t\t\t\t<label>{{ _(\"Family Situation\") }}</label>\n\t\t\t\t<p>{{ doc.family_situation_details }}</p>\n\t\t\t</div>\n\t\t\t{% endif %}\n\t\t\t{% if doc.antecedent_history %}\n\t\t\t<div class=\"col-xs-12\">\n\t\t\t\t<label>{{ _(\"Antecedent History\") }}</label>\n\t\t\t\t<p>{{ doc.get_formatted(\"antecedent_history\") }}</p>\n\t\t\t</div>\n\t\t\t{% endif %}\n\t\t\t{% if doc.spouse_addictions|length != 0 %}\n\t\t\t<div class=\"col-xs-12\">\n\t\t\t\t<table class=\"table table-condensed\">\n\t\t\t\t\t<tr>\n\t\t\t\t\t\t<th>{{ _(\"Spouse Addictions\") }}</th>\n\t\t\t\t\t\t<th>{{ _(\"Consumption\") }}</th>\n\t\t\t\t\t\t<th> {{ _(\"Remarks\") }}</th>\n\t\t\t\t\t</tr>\n\t\t\t\t\t<tbody>\n\t\t\t\t\t\t{%- for row in doc.spouse_addictions -%}\n\t\t\t\t\t\t<tr>\n\t\t\t\t\t\t\t<td style=\"width: 100px;\">{{ row.spouse_addictions }}</td>\n\t\t\t\t\t\t\t<td style=\"width: 200px;\">{{ row.consumption }}</td>\n\t\t\t\t\t\t\t<td style=\"width: 200px;\">{{ row.remarks }}</td>\n\t\t\t\t\t\t</tr>\n\t\t\t\t\t\t{% endfor %}\n\t\t\t\t\t</tbody>\n\t\t\t\t</table>\n\t\t\t</div>\n\t\t\t<br>\n\t\t\t{% endif %}\n\t\t</div>\n\t\t{% endif %}\n\t</section>\n\t<div id=\"footer-html\" class=\"visible-pdf\">\n\t\t{% if not no_letterhead and footer %}\n\t\t<div class=\"letter-head-footer\">\n\t\t\t{{ footer }}\n\t\t</div>\n\t\t{% endif %}\n\t\t<p class=\"text-center small page-number visible-pdf\">\n\t\t\t{{ _(\"Page {0} of {1}\").format('<span class=\"page\"></span>', '<span class=\"topage\"></span>') }}\n\t\t</p>\n\t</div>\n</div>",
 "idx": 0,
 "line_breaks": 0,
 "modified": "2023-08-21 14:34:19.201135",
 "modified_by": "Administrator",
 "module": "Patients",
 "name": "Patient Folder",
 "owner": "Administrator",
 "print_format_builder": 0,
 "print_format_type": "Jinja",
 "show_section_headings": 0,
 "standard": "Yes"
}
