{
 "allow_rename": 1,
 "autoname": "field:placental_delivery",
 "creation": "2017-03-28 18:19:02.103776",
 "doctype": "DocType",
 "document_type": "Setup",
 "editable_grid": 1,
 "engine": "InnoDB",
 "field_order": [
  "placental_delivery"
 ],
 "fields": [
  {
   "fieldname": "placental_delivery",
   "fieldtype": "Data",
   "ignore_user_permissions": 1,
   "in_list_view": 1,
   "label": "Placental Delivery",
   "reqd": 1,
   "unique": 1
  }
 ],
 "modified": "2023-08-14 09:14:46.322273",
 "modified_by": "Administrator",
 "module": "Patients",
 "name": "Placental Delivery",
 "owner": "Administrator",
 "permissions": [
  {
   "create": 1,
   "delete": 1,
   "email": 1,
   "export": 1,
   "print": 1,
   "read": 1,
   "report": 1,
   "role": "Midwife",
   "share": 1,
   "write": 1
  },
  {
   "create": 1,
   "delete": 1,
   "email": 1,
   "export": 1,
   "print": 1,
   "read": 1,
   "report": 1,
   "role": "Midwife Substitute",
   "share": 1,
   "write": 1
  },
  {
   "create": 1,
   "delete": 1,
   "email": 1,
   "export": 1,
   "print": 1,
   "read": 1,
   "report": 1,
   "role": "Appointment User",
   "share": 1,
   "write": 1
  }
 ],
 "quick_entry": 1,
 "sort_field": "modified",
 "sort_order": "DESC",
 "title_field": "placental_delivery",
 "track_changes": 1
}
