<svg id="healthicons" aria-hidden="true" style="position: absolute; width: 0; height: 0; overflow: hidden;" class="d-block" xmlns="http://www.w3.org/2000/svg">
    <symbol viewBox="0 0 48 48" fill="none" xmlns="http://www.w3.org/2000/svg" id="icon-medical-record">
        <path d="M 23.82 26.649 L 19.037 39.406 C 18.665 40.4 19.168 41.506 20.161 41.878 C 21.153 42.248 22.257 41.748 22.631 40.753 L 25.044 34.315 L 30.055 34.315 L 32.468 40.753 C 32.841 41.748 33.947 42.248 34.94 41.878 C 35.932 41.506 36.437 40.4 36.062 39.406 L 31.279 26.649 L 36.762 26.649 C 37.822 26.649 38.682 25.788 38.682 24.728 C 38.682 23.669 37.822 22.809 36.762 22.809 L 28.545 22.809 C 28.521 22.809 28.497 22.809 28.472 22.809 L 26.628 22.809 C 26.602 22.809 26.577 22.809 26.554 22.809 L 16.996 22.809 C 15.938 22.809 15.076 23.669 15.076 24.728 C 15.076 25.788 15.938 26.649 16.996 26.649 L 23.82 26.649 Z M 36.186 9.836 L 9.319 9.836 L 9.319 6 L 36.186 6 L 36.186 9.836 Z M 9.319 17.819 L 18.914 17.819 L 18.914 13.982 L 9.319 13.982 L 9.319 17.819 Z M 31.388 17.052 C 31.388 19.173 29.669 20.89 27.549 20.89 C 25.431 20.89 23.712 19.173 23.712 17.052 C 23.712 14.932 25.431 13.215 27.549 13.215 C 29.669 13.215 31.388 14.932 31.388 17.052 Z" style="" fill-rule="evenodd" clip-rule="evenodd" fill="var(--icon-stroke,black)" stroke="none"></path>
    </symbol>
    <symbol viewBox="0 0 48 48" fill="none" xmlns="http://www.w3.org/2000/svg" id="icon-calendar-schedule">
        <path fill-rule="evenodd" clip-rule="evenodd" d="M10 23C10 21.8954 10.8954 21 12 21H14C15.1046 21 16 21.8954 16 23V25C16 26.1046 15.1046 27 14 27H12C10.8954 27 10 26.1046 10 25V23ZM14 23V25H12V23H14Z" fill="var(--icon-stroke,black)"/>
        <path fill-rule="evenodd" clip-rule="evenodd" d="M20 21C18.8954 21 18 21.8954 18 23V25C18 26.1046 18.8954 27 20 27H22C23.1046 27 24 26.1046 24 25V23C24 21.8954 23.1046 21 22 21H20ZM22 23H20V25H22V23Z" fill="var(--icon-stroke,black)"/>
        <path fill-rule="evenodd" clip-rule="evenodd" d="M26 23C26 21.8954 26.8954 21 28 21H30C31.1046 21 32 21.8954 32 23V25C32 26.1046 31.1046 27 30 27H28C26.8954 27 26 26.1046 26 25V23ZM28 23H30V25H28V23Z" fill="var(--icon-stroke,black)"/>
        <path fill-rule="evenodd" clip-rule="evenodd" d="M12 29C10.8954 29 10 29.8954 10 31V33C10 34.1046 10.8954 35 12 35H14C15.1046 35 16 34.1046 16 33V31C16 29.8954 15.1046 29 14 29H12ZM12 31V33H14V31H12Z" fill="var(--icon-stroke,black)"/>
        <path fill-rule="evenodd" clip-rule="evenodd" d="M18 31C18 29.8954 18.8954 29 20 29H22C23.1046 29 24 29.8954 24 31V33C24 34.1046 23.1046 35 22 35H20C18.8954 35 18 34.1046 18 33V31ZM20 31H22V33H20V31Z" fill="var(--icon-stroke,black)"/>
        <path d="M35 31.5C35.5523 31.5 36 31.9477 36 32.5V34.5858L36.7071 35.2929C37.0976 35.6834 37.0976 36.3166 36.7071 36.7071C36.3166 37.0976 35.6834 37.0976 35.2929 36.7071L34 35.4142V32.5C34 31.9477 34.4477 31.5 35 31.5Z" fill="var(--icon-stroke,black)"/>
        <path fill-rule="evenodd" clip-rule="evenodd" d="M12 7C12 6.44772 12.4477 6 13 6C13.5523 6 14 6.44772 14 7V12C14 12.5523 13.5523 13 13 13C12.4477 13 12 12.5523 12 12V11H9C8.44772 11 8 11.4477 8 12V16H34V12C34 11.4477 33.5523 11 33 11H30V9H33C34.6569 9 36 10.3432 36 12V28.0709C39.3923 28.5561 42 31.4735 42 35C42 38.866 38.866 42 35 42C32.6213 42 30.5196 40.8135 29.2547 39H9C7.34315 39 6 37.6569 6 36V12C6 10.3431 7.34315 9 9 9H12V7ZM28 35C28 31.4735 30.6077 28.5561 34 28.0709V18H8V36C8 36.5523 8.44772 37 9 37H28.2899C28.1013 36.3663 28 35.695 28 35ZM35 40C37.7614 40 40 37.7614 40 35C40 32.2386 37.7614 30 35 30C32.2386 30 30 32.2386 30 35C30 37.7614 32.2386 40 35 40Z" fill="var(--icon-stroke,black)"/>
        <path d="M27 13C26.4477 13 26 12.5523 26 12V11H16V9H26V7C26 6.44772 26.4477 6 27 6C27.5523 6 28 6.44772 28 7V12C28 12.5523 27.5523 13 27 13Z" fill="var(--icon-stroke,black)"/>
    </symbol>
    <symbol viewBox="0 0 48 48" fill="none" xmlns="http://www.w3.org/2000/svg" id="icon-ambulatory-clinic">
        <path d="M 19 6 C 16.393 6 14.175 7.662 13.347 9.985 L 6 9.985 L 6 12.466 L 10 15.497 L 10 40 L 7 40 C 6.448 40 6 40.448 6 41 C 6 41.552 6.448 42 7 42 L 10 42 L 10 42.015 L 38 42.015 L 38 42 L 41 42 C 41.552 42 42 41.552 42 41 C 42 40.448 41.552 40 41 40 L 38 40 L 38 15.532 L 42.5 12.501 L 42.5 9.985 L 24.653 9.985 C 23.825 7.662 21.607 6 19 6 Z M 24.659 14 C 24.88 13.374 25 12.701 25 12 L 25 11.985 L 39.687 11.985 L 36.695 14 L 24.659 14 Z M 23.472 16 C 22.374 17.228 20.777 18 19 18 C 17.223 18 15.626 17.228 14.528 16 L 12 16 L 12 40 L 24 40 L 24 24 L 34 24 L 34 40 L 36 40 L 36 16 L 23.472 16 Z M 13 12 C 13 12.701 13.12 13.374 13.341 14 L 11.336 14 L 8.676 11.985 L 13 11.985 L 13 12 Z M 32 26 L 32 40 L 26 40 L 26 26 L 32 26 Z M 20.4 10.6 L 20.4 7.8 L 17.6 7.8 L 17.6 10.6 L 14.8 10.6 L 14.8 13.4 L 17.6 13.4 L 17.6 16.2 L 20.4 16.2 L 20.4 13.4 L 23.2 13.4 L 23.2 10.6 L 20.4 10.6 Z M 14 24 L 14 32 L 22 32 L 22 24 L 14 24 Z M 20 30 L 20 26 L 16 26 L 16 30 L 20 30 Z" style="" fill-rule="evenodd" clip-rule="evenodd" fill="var(--icon-stroke,black)" stroke="none"></path>
    </symbol>
    <symbol viewBox="0 0 48 48" fill="none" xmlns="http://www.w3.org/2000/svg" id="icon-finance">
        <path d="M 15.091 6.182 C 13.685 6.182 12.545 7.321 12.545 8.727 L 12.545 39.273 C 12.545 40.679 13.685 41.818 15.091 41.818 L 32.909 41.818 C 34.315 41.818 35.455 40.679 35.455 39.273 L 35.455 8.727 C 35.455 7.321 34.315 6.182 32.909 6.182 L 15.091 6.182 Z M 32.909 8.727 L 15.091 8.727 L 15.091 20.182 L 32.909 20.182 L 32.909 8.727 Z M 20.529 24.81 C 20.529 25.96 19.596 26.893 18.446 26.893 C 17.296 26.893 16.364 25.96 16.364 24.81 C 16.364 23.66 17.296 22.727 18.446 22.727 C 19.596 22.727 20.529 23.66 20.529 24.81 Z M 24 26.893 C 25.15 26.893 26.083 25.96 26.083 24.81 C 26.083 23.66 25.15 22.727 24 22.727 C 22.85 22.727 21.917 23.66 21.917 24.81 C 21.917 25.96 22.85 26.893 24 26.893 Z M 31.636 24.81 C 31.636 25.96 30.704 26.893 29.554 26.893 C 28.404 26.893 27.471 25.96 27.471 24.81 C 27.471 23.66 28.404 22.727 29.554 22.727 C 30.704 22.727 31.636 23.66 31.636 24.81 Z M 18.446 32.446 C 19.596 32.446 20.529 31.514 20.529 30.364 C 20.529 29.213 19.596 28.281 18.446 28.281 C 17.296 28.281 16.364 29.213 16.364 30.364 C 16.364 31.514 17.296 32.446 18.446 32.446 Z M 26.083 30.364 C 26.083 31.514 25.15 32.446 24 32.446 C 22.85 32.446 21.917 31.514 21.917 30.364 C 21.917 29.213 22.85 28.281 24 28.281 C 25.15 28.281 26.083 29.213 26.083 30.364 Z M 29.554 32.446 C 30.704 32.446 31.636 31.514 31.636 30.364 C 31.636 29.213 30.704 28.281 29.554 28.281 C 28.404 28.281 27.471 29.213 27.471 30.364 C 27.471 31.514 28.404 32.446 29.554 32.446 Z M 31.636 35.917 C 31.636 37.068 30.704 38 29.554 38 C 28.404 38 27.471 37.068 27.471 35.917 C 27.471 34.767 28.404 33.835 29.554 33.835 C 30.704 33.835 31.636 34.767 31.636 35.917 Z M 18.446 33.835 C 17.296 33.835 16.364 34.767 16.364 35.917 C 16.364 37.068 17.296 38 18.446 38 L 24 38 C 25.15 38 26.083 37.068 26.083 35.917 C 26.083 34.767 25.15 33.835 24 33.835 L 18.446 33.835 Z" style="" fill-rule="evenodd" clip-rule="evenodd" fill="var(--icon-stroke,black)" stroke="none"></path>
    </symbol>
    <symbol viewBox="0 0 48 48" fill="none" xmlns="http://www.w3.org/2000/svg" id="icon-pregnant">
        <path fill-rule="evenodd" clip-rule="evenodd" d="M24.574 11C25.9547 11 27.074 9.88071 27.074 8.5C27.074 7.11929 25.9547 6 24.574 6C23.1933 6 22.074 7.11929 22.074 8.5C22.074 9.88071 23.1933 11 24.574 11ZM24.574 13C27.0593 13 29.074 10.9853 29.074 8.5C29.074 6.01472 27.0593 4 24.574 4C22.0887 4 20.074 6.01472 20.074 8.5C20.074 10.9853 22.0887 13 24.574 13Z" fill="var(--icon-stroke,black)"/>
        <path fill-rule="evenodd" clip-rule="evenodd" d="M20.1535 15.3065C20.4267 15.1874 20.9327 15 21.574 15H23.574C24.145 15 24.6014 15.1643 24.7246 15.2086L24.7327 15.2115C24.933 15.2835 25.1184 15.3671 25.2714 15.4416C25.5836 15.5936 25.9252 15.7884 26.2749 16.0088C26.9808 16.4536 27.843 17.0806 28.7434 17.8729C30.5209 19.4371 32.627 21.8048 33.8594 24.8858C34.6426 26.8438 34.5872 28.7332 33.8585 30.3777C33.177 31.9159 32.0231 32.9814 31.041 33.675C27.9911 35.829 27.848 37.2291 27.072 41.1087C27.0148 42.7152 25.6944 44 24.074 44C22.4171 44 21.074 42.6569 21.074 41C21.074 35.8673 21.0716 32.8134 20.8397 29.9253C19.5344 30.8767 17.7005 30.6238 16.7037 29.3389C16.4607 29.0258 15.7882 28.0796 15.1877 27.1692C14.8835 26.7081 14.5629 26.2037 14.3086 25.7575C14.1841 25.539 14.0465 25.2842 13.9312 25.028C13.8738 24.9005 13.8014 24.7275 13.7385 24.529C13.6894 24.3742 13.574 23.9883 13.574 23.5C13.574 22.7844 13.8347 22.228 13.8915 22.1067L13.8922 22.1053L13.8929 22.1038L13.8947 22.1C13.9893 21.8945 14.0951 21.7097 14.1789 21.5706C14.3518 21.284 14.5664 20.9715 14.7854 20.6694C15.2309 20.0545 15.8141 19.3184 16.4212 18.6101C17.0216 17.9096 17.6997 17.1727 18.3346 16.5859C18.6462 16.298 19.0126 15.9851 19.3997 15.7252C19.5939 15.5948 19.8508 15.4386 20.1535 15.3065ZM21.574 17C20.839 17 20.1994 17.5858 19.6921 18.0547C19.1367 18.568 18.5148 19.2407 17.9397 19.9117C17.3623 20.5853 16.8138 21.2786 16.4048 21.8429C16.1534 22.1899 15.8913 22.546 15.711 22.9372C15.6295 23.1141 15.574 23.3039 15.574 23.5C15.574 23.9569 15.8275 24.3834 16.0463 24.7673C16.2689 25.158 16.5621 25.6207 16.8572 26.0679C17.4447 26.9585 18.0855 27.8573 18.2839 28.113C18.6224 28.5493 19.2506 28.6286 19.687 28.2901C20.1233 27.9516 20.2026 27.3234 19.8641 26.887C19.7103 26.6888 19.1011 25.8375 18.5267 24.9666C18.3293 24.6674 18.1431 24.3766 17.9849 24.1169L17.6385 23.5483L18.0294 23.0094C18.4013 22.4968 18.913 21.8493 19.4582 21.2133C19.581 21.0701 19.704 20.9291 19.8261 20.7919L21.1638 19.2881L21.5543 21.2625C23.0661 28.9082 23.074 31.4231 23.074 41C23.074 41.5523 23.5217 42 24.074 42C24.6952 42 25.074 41.479 25.074 40.901C25.8902 36.8201 26.369 34.5261 29.8872 32.0413C30.7024 31.4656 31.5475 30.6563 32.03 29.5674C32.5281 28.4433 32.597 27.115 32.0025 25.6286C30.925 22.935 29.0563 20.8124 27.4221 19.3743C26.6012 18.6519 25.8242 18.0887 25.2087 17.7008C24.8441 17.4711 24.4643 17.2402 24.0567 17.0938C23.9017 17.0381 23.7394 17 23.574 17H21.574Z" fill="var(--icon-stroke,black)"/>
    </symbol>
    <symbol viewBox="0 0 48 48" fill="none" xmlns="http://www.w3.org/2000/svg" id="icon-female-reproductive-system">
        <path fill-rule="evenodd" clip-rule="evenodd" d="M6.25587 15.1285C5.76466 14.341 6.01569 13.4525 6.81625 12.724C7.20603 12.3693 7.65852 12.132 8.04887 12.0412C8.44855 11.9482 8.65047 12.0303 8.73192 12.0956C10.5383 13.5436 11.7076 13.9187 12.7265 14.0078C13.0164 14.0331 13.2354 14.0401 13.4139 14.0458C13.8586 14.0599 14.0515 14.0661 14.4605 14.3283L15.5401 12.6447C14.6269 12.0592 13.807 12.0415 13.2427 12.0293C13.115 12.0265 13.0004 12.0241 12.9007 12.0154C12.3679 11.9688 11.5622 11.8011 9.98283 10.5351C9.25847 9.95444 8.35213 9.91718 7.5956 10.0932C6.82974 10.2714 6.07806 10.6916 5.47019 11.2448C4.27545 12.3319 3.3573 14.2606 4.55893 16.187C5.17971 17.1821 5.86889 18.0365 6.50435 18.7285C6.59552 18.5574 6.71267 18.4007 6.85662 18.2619C7.2197 17.912 7.70794 17.7201 8.25956 17.6755C7.61731 17.0094 6.89203 16.1483 6.25587 15.1285Z" fill="var(--icon-stroke,black)"/>
        <path fill-rule="evenodd" clip-rule="evenodd" d="M12.447 23.0879C12.3517 22.6573 12.0439 22.0735 11.455 21.5307C10.8661 20.9878 10.24 20.7108 9.78109 20.6306C9.52663 20.5861 9.39247 20.6068 9.33458 20.6242C9.31744 20.6791 9.2985 20.806 9.35136 21.0448C9.4467 21.4754 9.75448 22.0592 10.3434 22.602C10.9323 23.1448 11.5584 23.4218 12.0173 23.502C12.2717 23.5465 12.4059 23.5258 12.4638 23.5085C12.4809 23.4535 12.4999 23.3267 12.447 23.0879ZM12.4485 23.5426C12.4482 23.5424 12.4497 23.5395 12.4538 23.5342C12.4508 23.5401 12.4488 23.5428 12.4485 23.5426ZM12.4908 23.4985C12.4964 23.4945 12.4995 23.493 12.4996 23.4933C12.4998 23.4936 12.4971 23.4956 12.4908 23.4985ZM9.34988 20.5901C9.35016 20.5902 9.34869 20.5932 9.34458 20.5985C9.34754 20.5926 9.34959 20.5899 9.34988 20.5901ZM9.30752 20.6342C9.30199 20.6382 9.29889 20.6396 9.29872 20.6394C9.29854 20.6391 9.30131 20.6371 9.30752 20.6342ZM13.9417 24.8708C15.044 23.8084 14.5753 21.6916 12.895 20.1427C11.2146 18.5939 8.95887 18.1995 7.85662 19.2619C6.75436 20.3243 7.22301 22.4411 8.90337 23.9899C10.5837 25.5388 12.8395 25.9331 13.9417 24.8708Z" fill="var(--icon-stroke,black)"/>
        <path fill-rule="evenodd" clip-rule="evenodd" d="M41.7441 15.1285C42.2353 14.341 41.9843 13.4525 41.1837 12.724C40.794 12.3693 40.3415 12.132 39.9511 12.0412C39.5514 11.9482 39.3495 12.0303 39.2681 12.0956C37.4617 13.5436 36.2924 13.9187 35.2735 14.0078C34.9836 14.0331 34.7646 14.0401 34.5861 14.0458C34.1414 14.0599 33.9485 14.0661 33.5395 14.3283L32.4599 12.6447C33.3731 12.0592 34.193 12.0415 34.7573 12.0293C34.885 12.0265 34.9996 12.0241 35.0993 12.0154C35.6321 11.9688 36.4378 11.8011 38.0172 10.5351C38.7415 9.95444 39.6479 9.91718 40.4044 10.0932C41.1703 10.2714 41.9219 10.6916 42.5298 11.2448C43.7245 12.3319 44.6427 14.2606 43.4411 16.187C42.8072 17.2031 42.1021 18.0724 41.4556 18.7719C41.3615 18.5839 41.2369 18.4123 41.0809 18.2619C40.7305 17.9242 40.2635 17.7337 39.7354 17.6807C40.3789 17.0139 41.1063 16.151 41.7441 15.1285Z" fill="var(--icon-stroke,black)"/>
        <path fill-rule="evenodd" clip-rule="evenodd" d="M35.4905 23.0879C35.5858 22.6573 35.8936 22.0735 36.4825 21.5307C37.0714 20.9878 37.6975 20.7108 38.1564 20.6306C38.4109 20.5861 38.545 20.6068 38.6029 20.6242C38.6201 20.6791 38.639 20.806 38.5861 21.0448C38.4908 21.4754 38.183 22.0592 37.5941 22.602C37.0052 23.1448 36.3791 23.4218 35.9202 23.502C35.6658 23.5465 35.5316 23.5258 35.4737 23.5085C35.4566 23.4535 35.4376 23.3267 35.4905 23.0879ZM35.489 23.5426C35.4893 23.5424 35.4878 23.5395 35.4837 23.5342C35.4867 23.5401 35.4887 23.5428 35.489 23.5426ZM35.4467 23.4985C35.4411 23.4945 35.438 23.493 35.4379 23.4933C35.4377 23.4936 35.4404 23.4956 35.4467 23.4985ZM38.5876 20.5901C38.5873 20.5902 38.5888 20.5932 38.5929 20.5985C38.59 20.5926 38.5879 20.5899 38.5876 20.5901ZM38.63 20.6342C38.6355 20.6382 38.6386 20.6396 38.6388 20.6394C38.639 20.6391 38.6362 20.6371 38.63 20.6342ZM33.9958 24.8708C32.8935 23.8084 33.3622 21.6916 35.0425 20.1427C36.7229 18.5939 38.9786 18.1995 40.0809 19.2619C41.1831 20.3243 40.7145 22.4411 39.0341 23.9899C37.3538 25.5388 35.098 25.9331 33.9958 24.8708Z" fill="var(--icon-stroke,black)"/>
        <path fill-rule="evenodd" clip-rule="evenodd" d="M18.6615 19.2121C19.0946 20.1648 19.6455 20.9427 20.0524 21.3516C20.7975 22.1005 21.1419 23.3039 21.3451 24.4744C21.5576 25.6984 21.6533 27.1488 21.7307 28.602C21.746 28.8887 21.7605 29.1757 21.7751 29.4622C21.8354 30.651 21.8952 31.8308 22.003 32.9412C22.0987 33.9264 22.2286 34.8112 22.4144 35.5565C22.5438 35.4444 22.6841 35.325 22.8046 35.2323C22.9359 35.1312 23.0962 35.018 23.2732 34.9271C23.4413 34.8409 23.6997 34.7349 24.0101 34.7349C24.3268 34.7349 24.5873 34.8447 24.761 34.9399C24.9399 35.038 25.0959 35.1593 25.2196 35.2654C25.2597 35.2997 25.3008 35.3366 25.3422 35.3748C25.4633 34.7055 25.5308 33.9374 25.5657 33.0886C25.6023 32.1966 25.6021 31.2743 25.6018 30.3261C25.6017 29.8539 25.6016 29.3753 25.606 28.8909C25.619 27.4684 25.672 26.0202 25.9061 24.7409C26.1377 23.4749 26.5698 22.2355 27.4493 21.3516C28.0464 20.7516 28.7127 19.87 29.2168 18.8922C29.7261 17.9044 30.0252 16.9055 29.9983 16.0509C29.9732 15.2501 29.6681 14.5574 28.8742 14.0222C28.0237 13.4488 26.5251 13 24.0101 13C21.5094 13 20.0285 13.4845 19.183 14.0954C18.3806 14.6752 18.0506 15.4404 18.0054 16.316C17.9581 17.2306 18.2283 18.2592 18.6615 19.2121ZM18.0117 12.4743C19.3354 11.5179 21.2977 11 24.0101 11C26.7081 11 28.6692 11.472 29.9922 12.3639C31.3718 13.294 31.9541 14.6111 31.9973 15.9881C32.0389 17.3115 31.5874 18.6587 30.9944 19.8088C30.3962 20.969 29.6085 22.0172 28.867 22.7623C28.4078 23.2238 28.0767 23.9896 27.8734 25.1008C27.6726 26.1986 27.6188 27.4992 27.6059 28.9091C27.6019 29.3516 27.6019 29.8083 27.602 30.2699C27.6022 31.2429 27.6023 32.2383 27.564 33.1707C27.5074 34.5489 27.3648 35.9211 26.9703 37.0698C26.8958 37.2865 26.7402 37.6131 26.3948 37.824C26.0071 38.0609 25.6099 38.0175 25.3506 37.93C25.1151 37.8506 24.9272 37.717 24.8077 37.6229C24.6781 37.5208 24.556 37.4058 24.4541 37.3061C24.3716 37.2253 24.3013 37.1545 24.2379 37.0904C24.1457 36.9975 24.0679 36.919 23.9878 36.8458C23.8839 36.9278 23.7912 37.0092 23.6826 37.1046C23.5988 37.1781 23.5057 37.2599 23.3907 37.3566C23.1943 37.5219 22.8302 37.8249 22.4182 37.9435C22.1753 38.0134 21.8085 38.0511 21.437 37.8545C21.0752 37.6631 20.8911 37.3451 20.7977 37.0964C20.3721 35.9629 20.151 34.562 20.0124 33.1345C19.8997 31.9734 19.8369 30.7349 19.7765 29.5428C19.7623 29.2615 19.7482 28.9828 19.7335 28.7084C19.6558 27.2476 19.5641 25.9083 19.3746 24.8165C19.1757 23.6711 18.9034 23.0324 18.6347 22.7623C18.0278 22.1525 17.3518 21.1638 16.8408 20.0398C16.3298 18.9159 15.9385 17.5577 16.008 16.2127C16.0796 14.8288 16.6448 13.4618 18.0117 12.4743ZM23.8006 36.6943C23.7974 36.6927 23.7969 36.6922 23.7994 36.6936C23.7997 36.6938 23.8002 36.694 23.8006 36.6943Z" fill="var(--icon-stroke,black)"/>
    </symbol>
    <symbol viewBox="0 0 48 48" fill="none" xmlns="http://www.w3.org/2000/svg" id="icon-ante-natal-care-visit">
        <path fill-rule="evenodd" clip-rule="evenodd" d="M19.5 11C20.8807 11 22 9.88071 22 8.5C22 7.11929 20.8807 6 19.5 6C18.1193 6 17 7.11929 17 8.5C17 9.88071 18.1193 11 19.5 11ZM19.5 13C21.9853 13 24 10.9853 24 8.5C24 6.01472 21.9853 4 19.5 4C17.0147 4 15 6.01472 15 8.5C15 10.9853 17.0147 13 19.5 13Z" fill="var(--icon-stroke,black)"/>
        <path fill-rule="evenodd" clip-rule="evenodd" d="M32 16C34.2091 16 36 14.2091 36 12C36 9.79086 34.2091 8 32 8C29.7909 8 28 9.79086 28 12C28 14.2091 29.7909 16 32 16ZM32 18C35.3137 18 38 15.3137 38 12C38 8.68629 35.3137 6 32 6C28.6863 6 26 8.68629 26 12C26 15.3137 28.6863 18 32 18Z" fill="var(--icon-stroke,black)"/>
        <path fill-rule="evenodd" clip-rule="evenodd" d="M32 9C32.5523 9 33 9.44772 33 10V11.6972L33.8321 12.9453C34.1384 13.4048 34.0142 14.0257 33.5547 14.3321C33.0952 14.6384 32.4743 14.5142 32.1679 14.0547L31 12.3028V10C31 9.44772 31.4477 9 32 9Z" fill="var(--icon-stroke,black)"/>
        <path fill-rule="evenodd" clip-rule="evenodd" d="M15.0795 15.3065C15.3527 15.1874 15.8588 15 16.5 15H18.5C19.071 15 19.5275 15.1643 19.6506 15.2086L19.6587 15.2115C19.859 15.2835 20.0444 15.3671 20.1974 15.4416C20.5096 15.5936 20.8513 15.7884 21.2009 16.0088C21.9068 16.4536 22.769 17.0806 23.6694 17.8729C25.447 19.4371 27.553 21.8048 28.7854 24.8858C29.5686 26.8438 29.5132 28.7332 28.7846 30.3777C28.103 31.9159 26.9491 32.9814 25.967 33.675C22.9171 35.829 22.774 37.2291 21.9981 41.1087C21.9409 42.7152 20.6205 44 19 44C17.3431 44 16 42.6569 16 41C16 35.8673 15.9977 32.8134 15.7657 29.9253C14.4605 30.8767 12.6265 30.6238 11.6297 29.3389C11.3868 29.0258 10.7143 28.0796 10.1137 27.1692C9.80953 26.7081 9.48895 26.2037 9.23467 25.7575C9.11011 25.539 8.97253 25.2842 8.85725 25.028C8.79986 24.9005 8.72744 24.7275 8.66451 24.529C8.61541 24.3742 8.5 23.9883 8.5 23.5C8.5 22.7844 8.76069 22.228 8.81751 22.1067L8.8182 22.1053L8.81889 22.1038L8.82068 22.1C8.91538 21.8945 9.0211 21.7097 9.10495 21.5706C9.27784 21.284 9.49243 20.9715 9.71138 20.6694C10.1569 20.0545 10.7401 19.3184 11.3472 18.6101C11.9477 17.9096 12.6258 17.1727 13.2606 16.5859C13.5722 16.298 13.9386 15.9851 14.3257 15.7252C14.52 15.5948 14.7768 15.4386 15.0795 15.3065ZM16.5 17C15.765 17 15.1254 17.5858 14.6181 18.0547C14.0627 18.568 13.4409 19.2407 12.8657 19.9117C12.2884 20.5853 11.7398 21.2786 11.3309 21.8429C11.0794 22.1899 10.8173 22.546 10.637 22.9372C10.5555 23.1141 10.5 23.3039 10.5 23.5C10.5 23.9569 10.7535 24.3834 10.9723 24.7673C11.195 25.158 11.4882 25.6207 11.7832 26.0679C12.3707 26.9585 13.0115 27.8573 13.2099 28.113C13.5484 28.5493 14.1766 28.6286 14.613 28.2901C15.0493 27.9516 15.1286 27.3234 14.7901 26.887C14.6363 26.6888 14.0271 25.8375 13.4527 24.9666C13.2553 24.6674 13.0691 24.3766 12.9109 24.1169L12.5646 23.5483L12.9555 23.0094C13.3273 22.4968 13.8391 21.8493 14.3843 21.2133C14.507 21.0701 14.63 20.9291 14.7521 20.7919L16.0899 19.2881L16.4803 21.2625C17.9921 28.9082 18 31.4231 18 41C18 41.5523 18.4477 42 19 42C19.6212 42 20 41.479 20 40.901C20.8162 36.8201 21.295 34.5261 24.8132 32.0413C25.6285 31.4656 26.4735 30.6563 26.956 29.5674C27.4541 28.4433 27.523 27.115 26.9285 25.6286C25.851 22.935 23.9824 20.8124 22.3481 19.3743C21.5272 18.6519 20.7502 18.0887 20.1347 17.7008C19.7701 17.4711 19.3904 17.2402 18.9827 17.0938C18.8278 17.0381 18.6654 17 18.5 17H16.5Z" fill="var(--icon-stroke,black)"/>
    </symbol>
    <symbol viewBox="0 0 48 48" fill="none" xmlns="http://www.w3.org/2000/svg" id="icon-prescription">
        <path fill-rule="evenodd" clip-rule="evenodd" d="M24 6C14.0589 6 6 14.0589 6 24C6 33.9411 14.0589 42 24 42C33.9411 42 42 33.9411 42 24C42 14.0589 33.9411 6 24 6ZM4 24C4 12.9543 12.9543 4 24 4C35.0457 4 44 12.9543 44 24C44 35.0457 35.0457 44 24 44C12.9543 44 4 35.0457 4 24ZM16 30V14C16 13.4477 16.4477 13 17 13H23C25.7614 13 28 15.2386 28 18C28 20.6273 25.9736 22.7813 23.3984 22.9844L28 27.5859L32.2929 23.293L33.7072 24.7072L29.4142 29.0001L33.7071 33.293L32.2928 34.7072L28 30.4143L23.7072 34.7072L22.2929 33.293L26.5858 29.0001L20.5857 23H18V30H16ZM18 21H23C24.6569 21 26 19.6569 26 18C26 16.3431 24.6569 15 23 15H18V21Z" fill="var(--icon-stroke,black)"/>
    </symbol>
    <symbol viewBox="0 0 48 48" fill="none" xmlns="http://www.w3.org/2000/svg" id="icon-woman">
        <path fill-rule="evenodd" clip-rule="evenodd" d="M24.0002 11C25.381 11 26.5002 9.88071 26.5002 8.5C26.5002 7.11929 25.381 6 24.0002 6C22.6195 6 21.5002 7.11929 21.5002 8.5C21.5002 9.88071 22.6195 11 24.0002 11ZM24.0002 13C26.4855 13 28.5002 10.9853 28.5002 8.5C28.5002 6.01472 26.4855 4 24.0002 4C21.515 4 19.5002 6.01472 19.5002 8.5C19.5002 10.9853 21.515 13 24.0002 13Z" fill="var(--icon-stroke,black)"/>
        <path fill-rule="evenodd" clip-rule="evenodd" d="M20.9593 17C19.5902 17 18.6622 17.6651 18.0526 18.5314C17.4891 19.3323 17.1557 20.3598 16.8853 21.2476C16.6844 21.9072 16.6482 22.0457 16.5537 22.407L16.5509 22.418C16.4195 22.9209 16.1859 23.8142 15.3564 26.7461C15.2215 27.2229 15.4883 27.7936 16.0912 27.9594C16.7119 28.1301 17.2864 27.7571 17.4287 27.2539C18.3395 24.0347 18.5348 23.2704 18.6326 22.888L18.6334 22.8848C18.7112 22.5805 18.7386 22.4756 18.947 21.7915C19.2273 20.8713 19.4871 20.134 19.844 19.6267L19.8465 19.6232L19.8545 19.6119L21.543 20.4853L17.5829 34.7995C18.7628 35.1135 20.6376 35.5 24.0007 35.5C27.2591 35.5 29.3016 35.1373 30.4282 34.8349L26.4585 20.4859L28.1448 19.6094L28.157 19.6266C28.5139 20.1339 28.7738 20.8713 29.054 21.7915C29.2624 22.4756 29.2899 22.5805 29.3677 22.8848L29.3685 22.888C29.4662 23.2704 29.6615 24.0347 30.5723 27.2539C30.7147 27.7571 31.2892 28.1301 31.9099 27.9594C32.5128 27.7936 32.7796 27.2229 32.6447 26.7461C31.8446 23.9183 31.5989 22.9869 31.4646 22.4731L31.4473 22.407C31.3529 22.0457 31.3167 21.9073 31.1158 21.2476C30.8454 20.3598 30.512 19.3324 29.9484 18.5314C29.3389 17.6651 28.4109 17 27.0417 17H24.5164L24.5097 17H20.9593ZM33.2978 21.8938C33.425 22.3804 33.6553 23.2619 34.4807 26.1793C34.9479 27.8304 33.9528 29.4658 32.3972 29.8935C31.9545 30.0153 31.5014 30.0298 31.0697 29.95L32.2829 34.3353C32.5541 35.3157 32.069 36.4492 31.0126 36.7425C29.7209 37.1012 27.4877 37.5 24.0007 37.5C20.4648 37.5 18.4295 37.0899 17.0962 36.7341C16.0364 36.4514 15.45 35.3057 15.7437 34.2443L16.9317 29.9499C16.4998 30.0298 16.0466 30.0153 15.6039 29.8935C14.0482 29.4658 13.0532 27.8304 13.5203 26.1793C14.3456 23.2621 14.576 22.3806 14.7032 21.8939L14.7039 21.8913C14.8075 21.4947 14.85 21.3336 15.0608 20.6412C15.3238 19.7778 15.7356 18.4475 16.51 17.3469C17.4209 16.0522 18.8874 15 20.9593 15H24.5097L24.5164 15H27.0417C29.1136 15 30.5801 16.0522 31.4911 17.3469C32.2655 18.4475 32.6772 19.7778 32.9402 20.6412C33.1411 21.3006 33.1891 21.4782 33.2828 21.8362L33.2978 21.8938Z" fill="var(--icon-stroke,black)"/>
        <path fill-rule="evenodd" clip-rule="evenodd" d="M19.0002 39.0138V42.3875C19.0002 43.139 19.5563 43.7745 20.3011 43.8743C21.046 43.974 21.7497 43.5072 21.9474 42.7822L22.868 39.4067C21.632 39.347 20.3656 39.2166 19.0002 39.0138ZM26.1306 39.3999L27.0531 42.7822C27.2508 43.5072 27.9545 43.974 28.6993 43.8743C29.4442 43.7745 30.0002 43.139 30.0002 42.3875V39C28.6343 39.2016 27.3673 39.3354 26.1306 39.3999Z" fill="var(--icon-stroke,black)"/>
    </symbol>
    <symbol viewBox="0 0 48 48" fill="none" xmlns="http://www.w3.org/2000/svg" id="icon-clinical-record">
        <path d="M11 30C11 29.4477 11.4477 29 12 29H26C26.5523 29 27 29.4477 27 30C27 30.5523 26.5523 31 26 31H12C11.4477 31 11 30.5523 11 30Z" fill="var(--icon-stroke,black)"/>
        <path d="M12 34C11.4477 34 11 34.4477 11 35C11 35.5523 11.4477 36 12 36H26C26.5523 36 27 35.5523 27 35C27 34.4477 26.5523 34 26 34H12Z" fill="var(--icon-stroke,black)"/>
        <path d="M14 21V18H16V21H19V23H16V26H14V23H11V21H14Z" fill="var(--icon-stroke,black)"/>
        <path fill-rule="evenodd" clip-rule="evenodd" d="M15 6C13.3431 6 12 7.34315 12 9H9C7.34315 9 6 10.3431 6 12V39C6 40.6569 7.34315 42 9 42H29C30.6569 42 32 40.6569 32 39V12C32 10.3431 30.6569 9 29 9H26C26 7.34315 24.6569 6 23 6H15ZM23 12C23.5523 12 24 11.5523 24 11V9C24 8.44772 23.5523 8 23 8H15C14.4477 8 14 8.44772 14 9V11C14 11.5523 14.4477 12 15 12H23ZM12 11C12 12.6569 13.3431 14 15 14H23C24.6569 14 26 12.6569 26 11H29C29.5523 11 30 11.4477 30 12V39C30 39.5523 29.5523 40 29 40H9C8.44772 40 8 39.5523 8 39V12C8 11.4477 8.44772 11 9 11H12Z" fill="var(--icon-stroke,black)"/>
        <path fill-rule="evenodd" clip-rule="evenodd" d="M36 17C36 15.3431 37.3431 14 39 14C40.6569 14 42 15.3431 42 17V37.3028L39 41.8028L36 37.3028V17ZM39 16C38.4477 16 38 16.4477 38 17V19H40V17C40 16.4477 39.5523 16 39 16ZM39 38.1972L40 36.6972V21H38V36.6972L39 38.1972Z" fill="var(--icon-stroke,black)"/>
    </symbol>
    <symbol viewBox="0 0 48 48" fill="none" xmlns="http://www.w3.org/2000/svg" id="icon-sonography">
        <path fill-rule="evenodd" clip-rule="evenodd" d="M39 8.5H9C8.44771 8.5 8 8.94772 8 9.5V39.5C8 40.0523 8.44772 40.5 9 40.5H39C39.5523 40.5 40 40.0523 40 39.5V9.5C40 8.94771 39.5523 8.5 39 8.5ZM9 6.5C7.34315 6.5 6 7.84315 6 9.5V39.5C6 41.1569 7.34315 42.5 9 42.5H39C40.6569 42.5 42 41.1569 42 39.5V9.5C42 7.84315 40.6569 6.5 39 6.5H9Z" fill="var(--icon-stroke,black)"/>
        <path fill-rule="evenodd" clip-rule="evenodd" d="M10.3022 28.941C9.89853 29.9922 10.4407 31.1738 11.5189 31.498C15.482 32.6899 19.6695 33.3319 24 33.3319C28.3304 33.3319 32.5181 32.6898 36.4811 31.498C37.5594 31.1737 38.1015 29.9921 37.6979 28.941L32.2113 14.654C31.8398 13.6866 30.7921 13.1712 29.7788 13.3888C27.9145 13.7891 25.9814 14 24 14C22.0186 14 20.0856 13.7891 18.2212 13.3888C17.208 13.1712 16.1603 13.6866 15.7888 14.6541L10.3022 28.941ZM33.0002 22.2932C33.0002 24.4809 31.1774 26.2545 28.9288 26.2545C28.7577 26.2545 28.589 26.2442 28.4234 26.2242C28.2703 26.4305 28.1066 26.711 27.9181 27.0339C27.1075 28.4227 25.8399 30.5943 23.0001 31C20.7829 31.3205 19.2505 29.4527 18.2325 27.4642C18.1045 27.2141 17.9802 26.973 17.8638 26.7496C17.693 26.8256 17.5102 26.9077 17.3288 26.9891C16.8619 27.1988 16.4046 27.4042 16.1869 27.4888C15.2589 27.8497 14.2059 27.4102 13.835 26.5073C13.4641 25.6044 13.9158 24.58 14.8438 24.2191C14.9764 24.1676 15.2602 24.0399 15.6325 23.8724C15.8838 23.7594 16.1754 23.6283 16.4882 23.4901C16.8419 23.3338 17.2109 23.1743 17.5118 23.0562C17.6574 22.9991 17.8234 22.9371 17.9792 22.89C18.0527 22.8677 18.171 22.8341 18.3074 22.8106C18.3751 22.799 18.4882 22.7825 18.6263 22.7801C18.7336 22.7783 19.0262 22.7792 19.3633 22.9127C19.6439 23.0237 19.8266 23.1768 19.8902 23.2316C19.9741 23.304 20.0353 23.37 20.0703 23.4094C20.1406 23.4886 20.193 23.5608 20.221 23.6005C20.2812 23.6857 20.3362 23.7746 20.3782 23.8445C20.4667 23.992 20.5714 24.1798 20.6807 24.3814C20.8127 24.6248 21.2056 25.4094 21.3953 25.7896C21.446 25.8912 21.5827 25.9106 21.6598 25.8272C21.6988 25.7849 21.7125 25.7251 21.6958 25.67L21.1173 23.7666C20.9632 23.2528 20.8081 22.7373 20.6807 22.3247C20.617 22.1179 20.562 21.9429 20.5186 21.8097C20.488 21.7155 20.47 21.6636 20.4624 21.6417C20.4574 21.6271 20.4569 21.6259 20.4606 21.6346C20.0851 20.7335 20.5316 19.7069 21.4578 19.3416C22.384 18.9763 23.4391 19.4107 23.8146 20.3119L24.6899 23.2844C24.7107 23.3552 24.7802 23.3998 24.8533 23.3896C24.9358 23.3781 24.9883 23.297 24.9684 23.2161C24.8958 22.92 24.8574 22.6109 24.8574 22.2932C24.8574 20.6674 25.5718 19.5552 27.0788 18.8794C28.2523 18.3532 29.6446 18.1938 30.7939 18.7711C32.1043 19.4293 33.0002 20.7594 33.0002 22.2932Z" fill="var(--icon-stroke,black)"/>
        <path fill-rule="evenodd" clip-rule="evenodd" d="M36 12.5V14.5C36 15.0523 36.4477 15.5 37 15.5C37.5523 15.5 38 15.0523 38 14.5V12C38 11.1716 37.3284 10.5 36.5 10.5L34 10.5C33.4477 10.5 33 10.9477 33 11.5C33 12.0523 33.4477 12.5 34 12.5H36Z" fill="var(--icon-stroke,black)"/>
        <path fill-rule="evenodd" clip-rule="evenodd" d="M12 12.5H14C14.5523 12.5 15 12.0523 15 11.5C15 10.9477 14.5523 10.5 14 10.5H11.5C10.6716 10.5 10 11.1716 10 12V14.5C10 15.0523 10.4477 15.5 11 15.5C11.5523 15.5 12 15.0523 12 14.5V12.5Z" fill="var(--icon-stroke,black)"/>
        <path fill-rule="evenodd" clip-rule="evenodd" d="M36 36.5V34.5C36 33.9477 36.4477 33.5 37 33.5C37.5523 33.5 38 33.9477 38 34.5V37C38 37.8284 37.3284 38.5 36.5 38.5H34C33.4477 38.5 33 38.0523 33 37.5C33 36.9477 33.4477 36.5 34 36.5H36Z" fill="var(--icon-stroke,black)"/>
        <path fill-rule="evenodd" clip-rule="evenodd" d="M12 36.5H14C14.5523 36.5 15 36.9477 15 37.5C15 38.0523 14.5523 38.5 14 38.5H11.5C10.6716 38.5 10 37.8284 10 37V34.5C10 33.9477 10.4477 33.5 11 33.5C11.5523 33.5 12 33.9477 12 34.5V36.5Z" fill="var(--icon-stroke,black)"/>
    </symbol>

</svg>